%YAML 1.1
%TAG !u! tag:unity3d.com,2011:
--- !u!74 &7400000
AnimationClip:
  m_ObjectHideFlags: 0
  m_CorrespondingSourceObject: {fileID: 0}
  m_PrefabInstance: {fileID: 0}
  m_PrefabAsset: {fileID: 0}
  m_Name: CoinAnimation
  serializedVersion: 6
  m_Legacy: 1
  m_Compressed: 0
  m_UseHighQualityCurve: 1
  m_RotationCurves:
  - curve:
      serializedVersion: 2
      m_Curve:
      - serializedVersion: 3
        time: 0
        value: {x: -0.70710677, y: -0, z: -0, w: -0.70710677}
        inSlope: {x: 0.0002503395, y: 0.14562753, z: -0.14562753, w: 0.0002503395}
        outSlope: {x: 0.0002503395, y: 0.14562753, z: -0.14562753, w: 0.0002503395}
        tangentMode: 0
        weightedMode: 0
        inWeight: {x: 0.33333334, y: 0.33333334, z: 0.33333334, w: 0.33333334}
        outWeight: {x: 0.33333334, y: 0.33333334, z: 0.33333334, w: 0.33333334}
      - serializedVersion: 3
        time: 0.016666668
        value: {x: -0.7071026, y: 0.0024271256, z: -0.0024271256, w: -0.7071026}
        inSlope: {x: 0.0019311904, y: 0.28631043, z: -0.28631043, w: 0.0019311904}
        outSlope: {x: 0.0019311904, y: 0.28631043, z: -0.28631043, w: 0.0019311904}
        tangentMode: 0
        weightedMode: 0
        inWeight: {x: 0.33333334, y: 0.33333334, z: 0.33333334, w: 0.33333334}
        outWeight: {x: 0.33333334, y: 0.33333334, z: 0.33333334, w: 0.33333334}
      - serializedVersion: 3
        time: 0.033333335
        value: {x: -0.7070424, y: 0.0095436815, z: -0.0095436815, w: -0.7070424}
        inSlope: {x: 0.0093215685, y: 0.56020314, z: -0.56020314, w: 0.0093215685}
        outSlope: {x: 0.0093215685, y: 0.56020314, z: -0.56020314, w: 0.0093215685}
        tangentMode: 0
        weightedMode: 0
        inWeight: {x: 0.33333334, y: 0.33333334, z: 0.33333334, w: 0.33333334}
        outWeight: {x: 0.33333334, y: 0.33333334, z: 0.33333334, w: 0.33333334}
      - serializedVersion: 3
        time: 0.050000004
        value: {x: -0.7067919, y: 0.021100566, z: -0.021100566, w: -0.7067919}
        inSlope: {x: 0.026882887, y: 0.81897306, z: -0.81897306, w: 0.026882887}
        outSlope: {x: 0.026882887, y: 0.81897306, z: -0.81897306, w: 0.026882887}
        tangentMode: 0
        weightedMode: 0
        inWeight: {x: 0.33333334, y: 0.33333334, z: 0.33333334, w: 0.33333334}
        outWeight: {x: 0.33333334, y: 0.33333334, z: 0.33333334, w: 0.33333334}
      - serializedVersion: 3
        time: 0.06666667
        value: {x: -0.7061463, y: 0.036842786, z: -0.036842786, w: -0.7061463}
        inSlope: {x: 0.05838991, y: 1.0621083, z: -1.0621083, w: 0.05838991}
        outSlope: {x: 0.05838991, y: 1.0621083, z: -1.0621083, w: 0.05838991}
        tangentMode: 0
        weightedMode: 0
        inWeight: {x: 0.33333334, y: 0.33333334, z: 0.33333334, w: 0.33333334}
        outWeight: {x: 0.33333334, y: 0.33333334, z: 0.33333334, w: 0.33333334}
      - serializedVersion: 3
        time: 0.083333336
        value: {x: -0.70484555, y: 0.056504175, z: -0.056504175, w: -0.70484555}
        inSlope: {x: 0.10671081, y: 1.288762, z: -1.288762, w: 0.10671081}
        outSlope: {x: 0.10671081, y: 1.288762, z: -1.288762, w: 0.10671081}
        tangentMode: 0
        weightedMode: 0
        inWeight: {x: 0.33333334, y: 0.33333334, z: 0.33333334, w: 0.33333334}
        outWeight: {x: 0.33333334, y: 0.33333334, z: 0.33333334, w: 0.33333334}
      - serializedVersion: 3
        time: 0.1
        value: {x: -0.7025893, y: 0.079801515, z: -0.079801515, w: -0.7025893}
        inSlope: {x: 0.17382325, y: 1.497741, z: -1.497741, w: 0.17382325}
        outSlope: {x: 0.17382325, y: 1.497741, z: -1.497741, w: 0.17382325}
        tangentMode: 0
        weightedMode: 0
        inWeight: {x: 0.33333334, y: 0.33333334, z: 0.33333334, w: 0.33333334}
        outWeight: {x: 0.33333334, y: 0.33333334, z: 0.33333334, w: 0.33333334}
      - serializedVersion: 3
        time: 0.11666667
        value: {x: -0.69905144, y: 0.10642887, z: -0.10642887, w: -0.69905144}
        inSlope: {x: 0.26084298, y: 1.6875396, z: -1.6875396, w: 0.26084298}
        outSlope: {x: 0.26084298, y: 1.6875396, z: -1.6875396, w: 0.26084298}
        tangentMode: 0
        weightedMode: 0
        inWeight: {x: 0.33333334, y: 0.33333334, z: 0.33333334, w: 0.33333334}
        outWeight: {x: 0.33333334, y: 0.33333334, z: 0.33333334, w: 0.33333334}
      - serializedVersion: 3
        time: 0.13333334
        value: {x: -0.6938945, y: 0.13605285, z: -0.13605285, w: -0.6938945}
        inSlope: {x: 0.36802763, y: 1.8564055, z: -1.8564055, w: 0.36802763}
        outSlope: {x: 0.36802763, y: 1.8564055, z: -1.8564055, w: 0.36802763}
        tangentMode: 0
        weightedMode: 0
        inWeight: {x: 0.33333334, y: 0.33333334, z: 0.33333334, w: 0.33333334}
        outWeight: {x: 0.33333334, y: 0.33333334, z: 0.33333334, w: 0.33333334}
      - serializedVersion: 3
        time: 0.15
        value: {x: -0.68678385, y: 0.16830906, z: -0.16830906, w: -0.68678385}
        inSlope: {x: 0.4948086, y: 2.00243, z: -2.00243, w: 0.4948086}
        outSlope: {x: 0.4948086, y: 2.00243, z: -2.00243, w: 0.4948086}
        tangentMode: 0
        weightedMode: 0
        inWeight: {x: 0.33333334, y: 0.33333334, z: 0.33333334, w: 0.33333334}
        outWeight: {x: 0.33333334, y: 0.33333334, z: 0.33333334, w: 0.33333334}
      - serializedVersion: 3
        time: 0.16666667
        value: {x: -0.6774009, y: 0.20280051, z: -0.20280051, w: -0.6774009}
        inSlope: {x: 0.6398249, y: 2.12367, z: -2.12367, w: 0.6398249}
        outSlope: {x: 0.6398249, y: 2.12367, z: -2.12367, w: 0.6398249}
        tangentMode: 0
        weightedMode: 0
        inWeight: {x: 0.33333334, y: 0.33333334, z: 0.33333334, w: 0.33333334}
        outWeight: {x: 0.33333334, y: 0.33333334, z: 0.33333334, w: 0.33333334}
      - serializedVersion: 3
        time: 0.18333334
        value: {x: -0.66545635, y: 0.23909806, z: -0.23909806, w: -0.66545635}
        inSlope: {x: 0.8009631, y: 2.2182736, z: -2.2182736, w: 0.8009631}
        outSlope: {x: 0.8009631, y: 2.2182736, z: -2.2182736, w: 0.8009631}
        tangentMode: 0
        weightedMode: 0
        inWeight: {x: 0.33333334, y: 0.33333334, z: 0.33333334, w: 0.33333334}
        outWeight: {x: 0.33333334, y: 0.33333334, z: 0.33333334, w: 0.33333334}
      - serializedVersion: 3
        time: 0.2
        value: {x: -0.6507021, y: 0.27674296, z: -0.27674296, w: -0.6507021}
        inSlope: {x: 0.97541404, y: 2.2846115, z: -2.2846115, w: 0.97541404}
        outSlope: {x: 0.97541404, y: 2.2846115, z: -2.2846115, w: 0.97541404}
        tangentMode: 0
        weightedMode: 0
        inWeight: {x: 0.33333334, y: 0.33333334, z: 0.33333334, w: 0.33333334}
        outWeight: {x: 0.33333334, y: 0.33333334, z: 0.33333334, w: 0.33333334}
      - serializedVersion: 3
        time: 0.21666667
        value: {x: -0.63294256, y: 0.31525177, z: -0.31525177, w: -0.63294256}
        inSlope: {x: 1.159773, y: 2.3214092, z: -2.3214092, w: 1.159773}
        outSlope: {x: 1.159773, y: 2.3214092, z: -2.3214092, w: 1.159773}
        tangentMode: 0
        weightedMode: 0
        inWeight: {x: 0.33333334, y: 0.33333334, z: 0.33333334, w: 0.33333334}
        outWeight: {x: 0.33333334, y: 0.33333334, z: 0.33333334, w: 0.33333334}
      - serializedVersion: 3
        time: 0.23333333
        value: {x: -0.612043, y: 0.35412326, z: -0.35412326, w: -0.612043}
        inSlope: {x: 1.3501437, y: 2.3278713, z: -2.3278713, w: 1.3501437}
        outSlope: {x: 1.3501437, y: 2.3278713, z: -2.3278713, w: 1.3501437}
        tangentMode: 0
        weightedMode: 0
        inWeight: {x: 0.33333334, y: 0.33333334, z: 0.33333334, w: 0.33333334}
        outWeight: {x: 0.33333334, y: 0.33333334, z: 0.33333334, w: 0.33333334}
      - serializedVersion: 3
        time: 0.25
        value: {x: -0.5879378, y: 0.39284748, z: -0.39284748, w: -0.5879378}
        inSlope: {x: 1.5422481, y: 2.3037844, z: -2.3037844, w: 1.5422481}
        outSlope: {x: 1.5422481, y: 2.3037844, z: -2.3037844, w: 1.5422481}
        tangentMode: 0
        weightedMode: 0
        inWeight: {x: 0.33333334, y: 0.33333334, z: 0.33333334, w: 0.33333334}
        outWeight: {x: 0.33333334, y: 0.33333334, z: 0.33333334, w: 0.33333334}
      - serializedVersion: 3
        time: 0.26666668
        value: {x: -0.56063473, y: 0.4309161, z: -0.4309161, w: -0.56063473}
        inSlope: {x: 1.7315898, y: 2.2495964, z: -2.2495964, w: 1.7315898}
        outSlope: {x: 1.7315898, y: 2.2495964, z: -2.2495964, w: 1.7315898}
        tangentMode: 0
        weightedMode: 0
        inWeight: {x: 0.33333334, y: 0.33333334, z: 0.33333334, w: 0.33333334}
        outWeight: {x: 0.33333334, y: 0.33333334, z: 0.33333334, w: 0.33333334}
      - serializedVersion: 3
        time: 0.28333336
        value: {x: -0.53021806, y: 0.4678341, z: -0.4678341, w: -0.53021806}
        inSlope: {x: 1.9135854, y: 2.1664677, z: -2.1664677, w: 1.9135854}
        outSlope: {x: 1.9135854, y: 2.1664677, z: -2.1664677, w: 1.9135854}
        tangentMode: 0
        weightedMode: 0
        inWeight: {x: 0.33333334, y: 0.33333334, z: 0.33333334, w: 0.33333334}
        outWeight: {x: 0.33333334, y: 0.33333334, z: 0.33333334, w: 0.33333334}
      - serializedVersion: 3
        time: 0.30000004
        value: {x: -0.4968485, y: 0.50313175, z: -0.50313175, w: -0.4968485}
        inSlope: {x: 2.0837412, y: 2.0562844, z: -2.0562844, w: 2.0837412}
        outSlope: {x: 2.0837412, y: 2.0562844, z: -2.0562844, w: 2.0837412}
        tangentMode: 0
        weightedMode: 0
        inWeight: {x: 0.33333334, y: 0.33333334, z: 0.33333334, w: 0.33333334}
        outWeight: {x: 0.33333334, y: 0.33333334, z: 0.33333334, w: 0.33333334}
      - serializedVersion: 3
        time: 0.31666672
        value: {x: -0.46075997, y: 0.53637695, z: -0.53637695, w: -0.46075997}
        inSlope: {x: 2.2378106, y: 1.9216528, z: -1.9216528, w: 2.2378106}
        outSlope: {x: 2.2378106, y: 1.9216528, z: -1.9216528, w: 2.2378106}
        tangentMode: 0
        weightedMode: 0
        inWeight: {x: 0.33333334, y: 0.33333334, z: 0.33333334, w: 0.33333334}
        outWeight: {x: 0.33333334, y: 0.33333334, z: 0.33333334, w: 0.33333334}
      - serializedVersion: 3
        time: 0.3333334
        value: {x: -0.42225474, y: 0.5671869, z: -0.5671869, w: -0.42225474}
        inSlope: {x: 2.3719244, y: 1.7658308, z: -1.7658308, w: 2.3719244}
        outSlope: {x: 2.3719244, y: 1.7658308, z: -1.7658308, w: 2.3719244}
        tangentMode: 0
        weightedMode: 0
        inWeight: {x: 0.33333334, y: 0.33333334, z: 0.33333334, w: 0.33333334}
        outWeight: {x: 0.33333334, y: 0.33333334, z: 0.33333334, w: 0.33333334}
      - serializedVersion: 3
        time: 0.35000008
        value: {x: -0.38169575, y: 0.59523803, z: -0.59523803, w: -0.38169575}
        inSlope: {x: 2.4827347, y: 1.5926621, z: -1.5926621, w: 2.4827347}
        outSlope: {x: 2.4827347, y: 1.5926621, z: -1.5926621, w: 2.4827347}
        tangentMode: 0
        weightedMode: 0
        inWeight: {x: 0.33333334, y: 0.33333334, z: 0.33333334, w: 0.33333334}
        outWeight: {x: 0.33333334, y: 0.33333334, z: 0.33333334, w: 0.33333334}
      - serializedVersion: 3
        time: 0.36666676
        value: {x: -0.33949685, y: 0.6202757, z: -0.6202757, w: -0.33949685}
        inSlope: {x: 2.5675218, y: 1.4064527, z: -1.4064527, w: 2.5675218}
        outSlope: {x: 2.5675218, y: 1.4064527, z: -1.4064527, w: 2.5675218}
        tangentMode: 0
        weightedMode: 0
        inWeight: {x: 0.33333334, y: 0.33333334, z: 0.33333334, w: 0.33333334}
        outWeight: {x: 0.33333334, y: 0.33333334, z: 0.33333334, w: 0.33333334}
      - serializedVersion: 3
        time: 0.38333344
        value: {x: -0.2961116, y: 0.6421198, z: -0.6421198, w: -0.2961116}
        inSlope: {x: 2.6242747, y: 1.2118406, z: -1.2118406, w: 2.6242747}
        outSlope: {x: 2.6242747, y: 1.2118406, z: -1.2118406, w: 2.6242747}
        tangentMode: 0
        weightedMode: 0
        inWeight: {x: 0.33333334, y: 0.33333334, z: 0.33333334, w: 0.33333334}
        outWeight: {x: 0.33333334, y: 0.33333334, z: 0.33333334, w: 0.33333334}
      - serializedVersion: 3
        time: 0.40000013
        value: {x: -0.25202096, y: 0.6606704, z: -0.6606704, w: -0.25202096}
        inSlope: {x: 2.6517172, y: 1.0136524, z: -1.0136524, w: 2.6517172}
        outSlope: {x: 2.6517172, y: 1.0136524, z: -1.0136524, w: 2.6517172}
        tangentMode: 0
        weightedMode: 0
        inWeight: {x: 0.33333334, y: 0.33333334, z: 0.33333334, w: 0.33333334}
        outWeight: {x: 0.33333334, y: 0.33333334, z: 0.33333334, w: 0.33333334}
      - serializedVersion: 3
        time: 0.4166668
        value: {x: -0.20772097, y: 0.67590827, z: -0.67590827, w: -0.20772097}
        inSlope: {x: 2.6493247, y: 0.8167248, z: -0.8167248, w: 2.6493247}
        outSlope: {x: 2.6493247, y: 0.8167248, z: -0.8167248, w: 2.6493247}
        tangentMode: 0
        weightedMode: 0
        inWeight: {x: 0.33333334, y: 0.33333334, z: 0.33333334, w: 0.33333334}
        outWeight: {x: 0.33333334, y: 0.33333334, z: 0.33333334, w: 0.33333334}
      - serializedVersion: 3
        time: 0.4333335
        value: {x: -0.16371006, y: 0.6878946, z: -0.6878946, w: -0.16371006}
        inSlope: {x: 2.6173024, y: 0.62578034, z: -0.62578034, w: 2.6173024}
        outSlope: {x: 2.6173024, y: 0.62578034, z: -0.62578034, w: 2.6173024}
        tangentMode: 0
        weightedMode: 0
        inWeight: {x: 0.33333334, y: 0.33333334, z: 0.33333334, w: 0.33333334}
        outWeight: {x: 0.33333334, y: 0.33333334, z: 0.33333334, w: 0.33333334}
      - serializedVersion: 3
        time: 0.45000017
        value: {x: -0.12047748, y: 0.6967676, z: -0.6967676, w: -0.12047748}
        inSlope: {x: 2.55651, y: 0.44526243, z: -0.44526243, w: 2.55651}
        outSlope: {x: 2.55651, y: 0.44526243, z: -0.44526243, w: 2.55651}
        tangentMode: 0
        weightedMode: 0
        inWeight: {x: 0.33333334, y: 0.33333334, z: 0.33333334, w: 0.33333334}
        outWeight: {x: 0.33333334, y: 0.33333334, z: 0.33333334, w: 0.33333334}
      - serializedVersion: 3
        time: 0.46666685
        value: {x: -0.07849299, y: 0.7027367, z: -0.7027367, w: -0.07849299}
        inSlope: {x: 2.468382, y: 0.27919984, z: -0.27919984, w: 2.468382}
        outSlope: {x: 2.468382, y: 0.27919984, z: -0.27919984, w: 2.468382}
        tangentMode: 0
        weightedMode: 0
        inWeight: {x: 0.33333334, y: 0.33333334, z: 0.33333334, w: 0.33333334}
        outWeight: {x: 0.33333334, y: 0.33333334, z: 0.33333334, w: 0.33333334}
      - serializedVersion: 3
        time: 0.48333353
        value: {x: -0.03819802, y: 0.7060743, z: -0.7060743, w: -0.03819802}
        inSlope: {x: 2.354801, y: 0.13110274, z: -0.13110274, w: 2.354801}
        outSlope: {x: 2.354801, y: 0.13110274, z: -0.13110274, w: 2.354801}
        tangentMode: 0
        weightedMode: 0
        inWeight: {x: 0.33333334, y: 0.33333334, z: 0.33333334, w: 0.33333334}
        outWeight: {x: 0.33333334, y: 0.33333334, z: 0.33333334, w: 0.33333334}
      - serializedVersion: 3
        time: 0.5000002
        value: {x: 0.00000036808342, y: 0.70710677, z: -0.70710677, w: 0.00000036808342}
        inSlope: {x: 2.2919054, y: -0.0000017881393, z: 0.0000017881393, w: 2.2919054}
        outSlope: {x: 2.2919054, y: -0.0000017881393, z: 0.0000017881393, w: 2.2919054}
        tangentMode: 0
        weightedMode: 0
        inWeight: {x: 0.33333334, y: 0.33333334, z: 0.33333334, w: 0.33333334}
        outWeight: {x: 0.33333334, y: 0.33333334, z: 0.33333334, w: 0.33333334}
      - serializedVersion: 3
        time: 0.5166668
        value: {x: 0.038198754, y: 0.70607424, z: -0.70607424, w: 0.038198754}
        inSlope: {x: 2.3548028, y: -0.13110471, z: 0.13110471, w: 2.3548028}
        outSlope: {x: 2.3548028, y: -0.13110471, z: 0.13110471, w: 2.3548028}
        tangentMode: 0
        weightedMode: 0
        inWeight: {x: 0.33333334, y: 0.33333334, z: 0.33333334, w: 0.33333334}
        outWeight: {x: 0.33333334, y: 0.33333334, z: 0.33333334, w: 0.33333334}
      - serializedVersion: 3
        time: 0.5333335
        value: {x: 0.07849372, y: 0.7027366, z: -0.7027366, w: 0.07849372}
        inSlope: {x: 2.4683857, y: -0.27920213, z: 0.27920213, w: 2.4683857}
        outSlope: {x: 2.4683857, y: -0.27920213, z: 0.27920213, w: 2.4683857}
        tangentMode: 0
        weightedMode: 0
        inWeight: {x: 0.33333334, y: 0.33333334, z: 0.33333334, w: 0.33333334}
        outWeight: {x: 0.33333334, y: 0.33333334, z: 0.33333334, w: 0.33333334}
      - serializedVersion: 3
        time: 0.55000013
        value: {x: 0.120478205, y: 0.6967675, z: -0.6967675, w: 0.120478205}
        inSlope: {x: 2.5565119, y: -0.445265, z: 0.445265, w: 2.5565119}
        outSlope: {x: 2.5565119, y: -0.445265, z: 0.445265, w: 2.5565119}
        tangentMode: 0
        weightedMode: 0
        inWeight: {x: 0.33333334, y: 0.33333334, z: 0.33333334, w: 0.33333334}
        outWeight: {x: 0.33333334, y: 0.33333334, z: 0.33333334, w: 0.33333334}
      - serializedVersion: 3
        time: 0.5666668
        value: {x: 0.1637107, y: 0.68789446, z: -0.68789446, w: 0.1637107}
        inSlope: {x: 2.6173038, y: -0.6257832, z: 0.6257832, w: 2.6173038}
        outSlope: {x: 2.6173038, y: -0.6257832, z: 0.6257832, w: 2.6173038}
        tangentMode: 0
        weightedMode: 0
        inWeight: {x: 0.33333334, y: 0.33333334, z: 0.33333334, w: 0.33333334}
        outWeight: {x: 0.33333334, y: 0.33333334, z: 0.33333334, w: 0.33333334}
      - serializedVersion: 3
        time: 0.58333343
        value: {x: 0.20772158, y: 0.6759081, z: -0.6759081, w: 0.20772158}
        inSlope: {x: 2.6493263, y: -0.8167281, z: 0.8167281, w: 2.6493263}
        outSlope: {x: 2.6493263, y: -0.8167281, z: 0.8167281, w: 2.6493263}
        tangentMode: 0
        weightedMode: 0
        inWeight: {x: 0.33333334, y: 0.33333334, z: 0.33333334, w: 0.33333334}
        outWeight: {x: 0.33333334, y: 0.33333334, z: 0.33333334, w: 0.33333334}
      - serializedVersion: 3
        time: 0.6000001
        value: {x: 0.2520215, y: 0.6606702, z: -0.6606702, w: 0.2520215}
        inSlope: {x: 2.6517172, y: -1.0136542, z: 1.0136542, w: 2.6517172}
        outSlope: {x: 2.6517172, y: -1.0136542, z: 1.0136542, w: 2.6517172}
        tangentMode: 0
        weightedMode: 0
        inWeight: {x: 0.33333334, y: 0.33333334, z: 0.33333334, w: 0.33333334}
        outWeight: {x: 0.33333334, y: 0.33333334, z: 0.33333334, w: 0.33333334}
      - serializedVersion: 3
        time: 0.61666673
        value: {x: 0.29611206, y: 0.64211965, z: -0.64211965, w: 0.29611206}
        inSlope: {x: 2.6242757, y: -1.2118447, z: 1.2118447, w: 2.6242757}
        outSlope: {x: 2.6242757, y: -1.2118447, z: 1.2118447, w: 2.6242757}
        tangentMode: 0
        weightedMode: 0
        inWeight: {x: 0.33333334, y: 0.33333334, z: 0.33333334, w: 0.33333334}
        outWeight: {x: 0.33333334, y: 0.33333334, z: 0.33333334, w: 0.33333334}
      - serializedVersion: 3
        time: 0.6333334
        value: {x: 0.33949727, y: 0.62027544, z: -0.62027544, w: 0.33949727}
        inSlope: {x: 2.567522, y: -1.4064552, z: 1.4064552, w: 2.567522}
        outSlope: {x: 2.567522, y: -1.4064552, z: 1.4064552, w: 2.567522}
        tangentMode: 0
        weightedMode: 0
        inWeight: {x: 0.33333334, y: 0.33333334, z: 0.33333334, w: 0.33333334}
        outWeight: {x: 0.33333334, y: 0.33333334, z: 0.33333334, w: 0.33333334}
      - serializedVersion: 3
        time: 0.65000004
        value: {x: 0.38169605, y: 0.59523785, z: -0.59523785, w: 0.38169605}
        inSlope: {x: 2.4827302, y: -1.5926614, z: 1.5926614, w: 2.4827302}
        outSlope: {x: 2.4827302, y: -1.5926614, z: 1.5926614, w: 2.4827302}
        tangentMode: 0
        weightedMode: 0
        inWeight: {x: 0.33333334, y: 0.33333334, z: 0.33333334, w: 0.33333334}
        outWeight: {x: 0.33333334, y: 0.33333334, z: 0.33333334, w: 0.33333334}
      - serializedVersion: 3
        time: 0.6666667
        value: {x: 0.42225486, y: 0.5671868, z: -0.5671868, w: 0.42225486}
        inSlope: {x: 2.3719225, y: -1.7658304, z: 1.7658304, w: 2.3719225}
        outSlope: {x: 2.3719225, y: -1.7658304, z: 1.7658304, w: 2.3719225}
        tangentMode: 0
        weightedMode: 0
        inWeight: {x: 0.33333334, y: 0.33333334, z: 0.33333334, w: 0.33333334}
        outWeight: {x: 0.33333334, y: 0.33333334, z: 0.33333334, w: 0.33333334}
      - serializedVersion: 3
        time: 0.68333334
        value: {x: 0.46076006, y: 0.5363769, z: -0.5363769, w: 0.46076006}
        inSlope: {x: 2.237811, y: -1.9216526, z: 1.9216526, w: 2.237811}
        outSlope: {x: 2.237811, y: -1.9216526, z: 1.9216526, w: 2.237811}
        tangentMode: 0
        weightedMode: 0
        inWeight: {x: 0.33333334, y: 0.33333334, z: 0.33333334, w: 0.33333334}
        outWeight: {x: 0.33333334, y: 0.33333334, z: 0.33333334, w: 0.33333334}
      - serializedVersion: 3
        time: 0.7
        value: {x: 0.4968485, y: 0.50313175, z: -0.50313175, w: 0.4968485}
        inSlope: {x: 2.0837421, y: -2.0562844, z: 2.0562844, w: 2.0837421}
        outSlope: {x: 2.0837421, y: -2.0562844, z: 2.0562844, w: 2.0837421}
        tangentMode: 0
        weightedMode: 0
        inWeight: {x: 0.33333334, y: 0.33333334, z: 0.33333334, w: 0.33333334}
        outWeight: {x: 0.33333334, y: 0.33333334, z: 0.33333334, w: 0.33333334}
      - serializedVersion: 3
        time: 0.71666664
        value: {x: 0.53021806, y: 0.46783414, z: -0.46783414, w: 0.53021806}
        inSlope: {x: 1.9135854, y: -2.1664686, z: 2.1664686, w: 1.9135854}
        outSlope: {x: 1.9135854, y: -2.1664686, z: 2.1664686, w: 1.9135854}
        tangentMode: 0
        weightedMode: 0
        inWeight: {x: 0.33333334, y: 0.33333334, z: 0.33333334, w: 0.33333334}
        outWeight: {x: 0.33333334, y: 0.33333334, z: 0.33333334, w: 0.33333334}
      - serializedVersion: 3
        time: 0.7333333
        value: {x: 0.5606346, y: 0.4309162, z: -0.4309162, w: 0.5606346}
        inSlope: {x: 1.7315893, y: -2.2495959, z: 2.2495959, w: 1.7315893}
        outSlope: {x: 1.7315893, y: -2.2495959, z: 2.2495959, w: 1.7315893}
        tangentMode: 0
        weightedMode: 0
        inWeight: {x: 0.33333334, y: 0.33333334, z: 0.33333334, w: 0.33333334}
        outWeight: {x: 0.33333334, y: 0.33333334, z: 0.33333334, w: 0.33333334}
      - serializedVersion: 3
        time: 0.74999994
        value: {x: 0.58793765, y: 0.3928477, z: -0.3928477, w: 0.58793765}
        inSlope: {x: 1.5422537, y: -2.3037863, z: 2.3037863, w: 1.5422537}
        outSlope: {x: 1.5422537, y: -2.3037863, z: 2.3037863, w: 1.5422537}
        tangentMode: 0
        weightedMode: 0
        inWeight: {x: 0.33333334, y: 0.33333334, z: 0.33333334, w: 0.33333334}
        outWeight: {x: 0.33333334, y: 0.33333334, z: 0.33333334, w: 0.33333334}
      - serializedVersion: 3
        time: 0.7666666
        value: {x: 0.612043, y: 0.35412338, z: -0.35412338, w: 0.612043}
        inSlope: {x: 1.3501449, y: -2.3278728, z: 2.3278728, w: 1.3501449}
        outSlope: {x: 1.3501449, y: -2.3278728, z: 2.3278728, w: 1.3501449}
        tangentMode: 0
        weightedMode: 0
        inWeight: {x: 0.33333334, y: 0.33333334, z: 0.33333334, w: 0.33333334}
        outWeight: {x: 0.33333334, y: 0.33333334, z: 0.33333334, w: 0.33333334}
      - serializedVersion: 3
        time: 0.78333324
        value: {x: 0.63294244, y: 0.315252, z: -0.315252, w: 0.63294244}
        inSlope: {x: 1.1597705, y: -2.321406, z: 2.321406, w: 1.1597705}
        outSlope: {x: 1.1597705, y: -2.321406, z: 2.321406, w: 1.1597705}
        tangentMode: 0
        weightedMode: 0
        inWeight: {x: 0.33333334, y: 0.33333334, z: 0.33333334, w: 0.33333334}
        outWeight: {x: 0.33333334, y: 0.33333334, z: 0.33333334, w: 0.33333334}
      - serializedVersion: 3
        time: 0.7999999
        value: {x: 0.650702, y: 0.27674326, z: -0.27674326, w: 0.650702}
        inSlope: {x: 0.9754149, y: -2.284614, z: 2.284614, w: 0.9754149}
        outSlope: {x: 0.9754149, y: -2.284614, z: 2.284614, w: 0.9754149}
        tangentMode: 0
        weightedMode: 0
        inWeight: {x: 0.33333334, y: 0.33333334, z: 0.33333334, w: 0.33333334}
        outWeight: {x: 0.33333334, y: 0.33333334, z: 0.33333334, w: 0.33333334}
      - serializedVersion: 3
        time: 0.81666654
        value: {x: 0.66545624, y: 0.23909828, z: -0.23909828, w: 0.66545624}
        inSlope: {x: 0.80096376, y: -2.218275, z: 2.218275, w: 0.80096376}
        outSlope: {x: 0.80096376, y: -2.218275, z: 2.218275, w: 0.80096376}
        tangentMode: 0
        weightedMode: 0
        inWeight: {x: 0.33333334, y: 0.33333334, z: 0.33333334, w: 0.33333334}
        outWeight: {x: 0.33333334, y: 0.33333334, z: 0.33333334, w: 0.33333334}
      - serializedVersion: 3
        time: 0.8333332
        value: {x: 0.67740077, y: 0.20280083, z: -0.20280083, w: 0.67740077}
        inSlope: {x: 0.63982725, y: -2.12367, z: 2.12367, w: 0.63982725}
        outSlope: {x: 0.63982725, y: -2.12367, z: 2.12367, w: 0.63982725}
        tangentMode: 0
        weightedMode: 0
        inWeight: {x: 0.33333334, y: 0.33333334, z: 0.33333334, w: 0.33333334}
        outWeight: {x: 0.33333334, y: 0.33333334, z: 0.33333334, w: 0.33333334}
      - serializedVersion: 3
        time: 0.84999985
        value: {x: 0.6867838, y: 0.16830935, z: -0.16830935, w: 0.6867838}
        inSlope: {x: 0.49481082, y: -2.0024333, z: 2.0024333, w: 0.49481082}
        outSlope: {x: 0.49481082, y: -2.0024333, z: 2.0024333, w: 0.49481082}
        tangentMode: 0
        weightedMode: 0
        inWeight: {x: 0.33333334, y: 0.33333334, z: 0.33333334, w: 0.33333334}
        outWeight: {x: 0.33333334, y: 0.33333334, z: 0.33333334, w: 0.33333334}
      - serializedVersion: 3
        time: 0.8666665
        value: {x: 0.69389445, y: 0.13605312, z: -0.13605312, w: 0.69389445}
        inSlope: {x: 0.36802804, y: -1.8564036, z: 1.8564036, w: 0.36802804}
        outSlope: {x: 0.36802804, y: -1.8564036, z: 1.8564036, w: 0.36802804}
        tangentMode: 0
        weightedMode: 0
        inWeight: {x: 0.33333334, y: 0.33333334, z: 0.33333334, w: 0.33333334}
        outWeight: {x: 0.33333334, y: 0.33333334, z: 0.33333334, w: 0.33333334}
      - serializedVersion: 3
        time: 0.88333315
        value: {x: 0.6990514, y: 0.10642929, z: -0.10642929, w: 0.6990514}
        inSlope: {x: 0.26084507, y: -1.6875396, z: 1.6875396, w: 0.26084507}
        outSlope: {x: 0.26084507, y: -1.6875396, z: 1.6875396, w: 0.26084507}
        tangentMode: 0
        weightedMode: 0
        inWeight: {x: 0.33333334, y: 0.33333334, z: 0.33333334, w: 0.33333334}
        outWeight: {x: 0.33333334, y: 0.33333334, z: 0.33333334, w: 0.33333334}
      - serializedVersion: 3
        time: 0.8999998
        value: {x: 0.7025893, y: 0.07980185, z: -0.07980185, w: 0.7025893}
        inSlope: {x: 0.17382342, y: -1.4977427, z: 1.4977427, w: 0.17382342}
        outSlope: {x: 0.17382342, y: -1.4977427, z: 1.4977427, w: 0.17382342}
        tangentMode: 0
        weightedMode: 0
        inWeight: {x: 0.33333334, y: 0.33333334, z: 0.33333334, w: 0.33333334}
        outWeight: {x: 0.33333334, y: 0.33333334, z: 0.33333334, w: 0.33333334}
      - serializedVersion: 3
        time: 0.91666645
        value: {x: 0.7048455, y: 0.056504577, z: -0.056504577, w: 0.7048455}
        inSlope: {x: 0.106710896, y: -1.2887609, z: 1.2887609, w: 0.106710896}
        outSlope: {x: 0.106710896, y: -1.2887609, z: 1.2887609, w: 0.106710896}
        tangentMode: 0
        weightedMode: 0
        inWeight: {x: 0.33333334, y: 0.33333334, z: 0.33333334, w: 0.33333334}
        outWeight: {x: 0.33333334, y: 0.33333334, z: 0.33333334, w: 0.33333334}
      - serializedVersion: 3
        time: 0.9333331
        value: {x: 0.7061463, y: 0.036843196, z: -0.036843196, w: 0.7061463}
        inSlope: {x: 0.058389958, y: -1.0621109, z: 1.0621109, w: 0.058389958}
        outSlope: {x: 0.058389958, y: -1.0621109, z: 1.0621109, w: 0.058389958}
        tangentMode: 0
        weightedMode: 0
        inWeight: {x: 0.33333334, y: 0.33333334, z: 0.33333334, w: 0.33333334}
        outWeight: {x: 0.33333334, y: 0.33333334, z: 0.33333334, w: 0.33333334}
      - serializedVersion: 3
        time: 0.94999975
        value: {x: 0.7067918, y: 0.021100912, z: -0.021100912, w: 0.7067918}
        inSlope: {x: 0.026882913, y: -0.81898004, z: 0.81898004, w: 0.026882913}
        outSlope: {x: 0.026882913, y: -0.81898004, z: 0.81898004, w: 0.026882913}
        tangentMode: 0
        weightedMode: 0
        inWeight: {x: 0.33333334, y: 0.33333334, z: 0.33333334, w: 0.33333334}
        outWeight: {x: 0.33333334, y: 0.33333334, z: 0.33333334, w: 0.33333334}
      - serializedVersion: 3
        time: 0.9666664
        value: {x: 0.7070424, y: 0.009543886, z: -0.009543886, w: 0.7070424}
        inSlope: {x: 0.009323367, y: -0.5602102, z: 0.5602102, w: 0.009323367}
        outSlope: {x: 0.009323367, y: -0.5602102, z: 0.5602102, w: 0.009323367}
        tangentMode: 0
        weightedMode: 0
        inWeight: {x: 0.33333334, y: 0.33333334, z: 0.33333334, w: 0.33333334}
        outWeight: {x: 0.33333334, y: 0.33333334, z: 0.33333334, w: 0.33333334}
      - serializedVersion: 3
        time: 0.98333305
        value: {x: 0.7071026, y: 0.0024272548, z: -0.0024272548, w: 0.7071026}
        inSlope: {x: 0.0019311901, y: -0.28631744, z: 0.28631744, w: 0.0019311901}
        outSlope: {x: 0.0019311901, y: -0.28631744, z: 0.28631744, w: 0.0019311901}
        tangentMode: 0
        weightedMode: 0
        inWeight: {x: 0.33333334, y: 0.33333334, z: 0.33333334, w: 0.33333334}
        outWeight: {x: 0.33333334, y: 0.33333334, z: 0.33333334, w: 0.33333334}
      - serializedVersion: 3
        time: 1
        value: {x: 0.70710677, y: -0.00000006181724, z: 0.00000006181724, w: 0.70710677}
        inSlope: {x: 0.00025033526, y: -0.14563654, z: 0.14563654, w: 0.00025033526}
        outSlope: {x: 0.00025033526, y: -0.14563654, z: 0.14563654, w: 0.00025033526}
        tangentMode: 0
        weightedMode: 0
        inWeight: {x: 0.33333334, y: 0.33333334, z: 0.33333334, w: 0.33333334}
        outWeight: {x: 0.33333334, y: 0.33333334, z: 0.33333334, w: 0.33333334}
      m_PreInfinity: 2
      m_PostInfinity: 2
      m_RotationOrder: 4
    path: 
  m_CompressedRotationCurves: []
  m_EulerCurves: []
  m_PositionCurves: []
  m_ScaleCurves: []
  m_FloatCurves: []
  m_PPtrCurves: []
  m_SampleRate: 60
  m_WrapMode: 2
  m_Bounds:
    m_Center: {x: 0, y: 0, z: 0}
    m_Extent: {x: 0, y: 0, z: 0}
  m_ClipBindingConstant:
    genericBindings: []
    pptrCurveMapping: []
  m_AnimationClipSettings:
    serializedVersion: 2
    m_AdditiveReferencePoseClip: {fileID: 0}
    m_AdditiveReferencePoseTime: 0
    m_StartTime: 0
    m_StopTime: 1
    m_OrientationOffsetY: 0
    m_Level: 0
    m_CycleOffset: 0
    m_HasAdditiveReferencePose: 0
    m_LoopTime: 1
    m_LoopBlend: 0
    m_LoopBlendOrientation: 0
    m_LoopBlendPositionY: 0
    m_LoopBlendPositionXZ: 0
    m_KeepOriginalOrientation: 0
    m_KeepOriginalPositionY: 1
    m_KeepOriginalPositionXZ: 0
    m_HeightFromFeet: 0
    m_Mirror: 0
  m_EditorCurves:
  - curve:
      serializedVersion: 2
      m_Curve:
      - serializedVersion: 3
        time: 0
        value: -0.70710677
        inSlope: 0.0002503395
        outSlope: 0.0002503395
        tangentMode: 0
        weightedMode: 0
        inWeight: 0.33333334
        outWeight: 0.33333334
      - serializedVersion: 3
        time: 0.016666668
        value: -0.7071026
        inSlope: 0.0019311904
        outSlope: 0.0019311904
        tangentMode: 0
        weightedMode: 0
        inWeight: 0.33333334
        outWeight: 0.33333334
      - serializedVersion: 3
        time: 0.033333335
        value: -0.7070424
        inSlope: 0.0093215685
        outSlope: 0.0093215685
        tangentMode: 0
        weightedMode: 0
        inWeight: 0.33333334
        outWeight: 0.33333334
      - serializedVersion: 3
        time: 0.050000004
        value: -0.7067919
        inSlope: 0.026882887
        outSlope: 0.026882887
        tangentMode: 0
        weightedMode: 0
        inWeight: 0.33333334
        outWeight: 0.33333334
      - serializedVersion: 3
        time: 0.06666667
        value: -0.7061463
        inSlope: 0.05838991
        outSlope: 0.05838991
        tangentMode: 0
        weightedMode: 0
        inWeight: 0.33333334
        outWeight: 0.33333334
      - serializedVersion: 3
        time: 0.083333336
        value: -0.70484555
        inSlope: 0.10671081
        outSlope: 0.10671081
        tangentMode: 0
        weightedMode: 0
        inWeight: 0.33333334
        outWeight: 0.33333334
      - serializedVersion: 3
        time: 0.1
        value: -0.7025893
        inSlope: 0.17382325
        outSlope: 0.17382325
        tangentMode: 0
        weightedMode: 0
        inWeight: 0.33333334
        outWeight: 0.33333334
      - serializedVersion: 3
        time: 0.11666667
        value: -0.69905144
        inSlope: 0.26084298
        outSlope: 0.26084298
        tangentMode: 0
        weightedMode: 0
        inWeight: 0.33333334
        outWeight: 0.33333334
      - serializedVersion: 3
        time: 0.13333334
        value: -0.6938945
        inSlope: 0.36802763
        outSlope: 0.36802763
        tangentMode: 0
        weightedMode: 0
        inWeight: 0.33333334
        outWeight: 0.33333334
      - serializedVersion: 3
        time: 0.15
        value: -0.68678385
        inSlope: 0.4948086
        outSlope: 0.4948086
        tangentMode: 0
        weightedMode: 0
        inWeight: 0.33333334
        outWeight: 0.33333334
      - serializedVersion: 3
        time: 0.16666667
        value: -0.6774009
        inSlope: 0.6398249
        outSlope: 0.6398249
        tangentMode: 0
        weightedMode: 0
        inWeight: 0.33333334
        outWeight: 0.33333334
      - serializedVersion: 3
        time: 0.18333334
        value: -0.66545635
        inSlope: 0.8009631
        outSlope: 0.8009631
        tangentMode: 0
        weightedMode: 0
        inWeight: 0.33333334
        outWeight: 0.33333334
      - serializedVersion: 3
        time: 0.2
        value: -0.6507021
        inSlope: 0.97541404
        outSlope: 0.97541404
        tangentMode: 0
        weightedMode: 0
        inWeight: 0.33333334
        outWeight: 0.33333334
      - serializedVersion: 3
        time: 0.21666667
        value: -0.63294256
        inSlope: 1.159773
        outSlope: 1.159773
        tangentMode: 0
        weightedMode: 0
        inWeight: 0.33333334
        outWeight: 0.33333334
      - serializedVersion: 3
        time: 0.23333333
        value: -0.612043
        inSlope: 1.3501437
        outSlope: 1.3501437
        tangentMode: 0
        weightedMode: 0
        inWeight: 0.33333334
        outWeight: 0.33333334
      - serializedVersion: 3
        time: 0.25
        value: -0.5879378
        inSlope: 1.5422481
        outSlope: 1.5422481
        tangentMode: 0
        weightedMode: 0
        inWeight: 0.33333334
        outWeight: 0.33333334
      - serializedVersion: 3
        time: 0.26666668
        value: -0.56063473
        inSlope: 1.7315898
        outSlope: 1.7315898
        tangentMode: 0
        weightedMode: 0
        inWeight: 0.33333334
        outWeight: 0.33333334
      - serializedVersion: 3
        time: 0.28333336
        value: -0.53021806
        inSlope: 1.9135854
        outSlope: 1.9135854
        tangentMode: 0
        weightedMode: 0
        inWeight: 0.33333334
        outWeight: 0.33333334
      - serializedVersion: 3
        time: 0.30000004
        value: -0.4968485
        inSlope: 2.0837412
        outSlope: 2.0837412
        tangentMode: 0
        weightedMode: 0
        inWeight: 0.33333334
        outWeight: 0.33333334
      - serializedVersion: 3
        time: 0.31666672
        value: -0.46075997
        inSlope: 2.2378106
        outSlope: 2.2378106
        tangentMode: 0
        weightedMode: 0
        inWeight: 0.33333334
        outWeight: 0.33333334
      - serializedVersion: 3
        time: 0.3333334
        value: -0.42225474
        inSlope: 2.3719244
        outSlope: 2.3719244
        tangentMode: 0
        weightedMode: 0
        inWeight: 0.33333334
        outWeight: 0.33333334
      - serializedVersion: 3
        time: 0.35000008
        value: -0.38169575
        inSlope: 2.4827347
        outSlope: 2.4827347
        tangentMode: 0
        weightedMode: 0
        inWeight: 0.33333334
        outWeight: 0.33333334
      - serializedVersion: 3
        time: 0.36666676
        value: -0.33949685
        inSlope: 2.5675218
        outSlope: 2.5675218
        tangentMode: 0
        weightedMode: 0
        inWeight: 0.33333334
        outWeight: 0.33333334
      - serializedVersion: 3
        time: 0.38333344
        value: -0.2961116
        inSlope: 2.6242747
        outSlope: 2.6242747
        tangentMode: 0
        weightedMode: 0
        inWeight: 0.33333334
        outWeight: 0.33333334
      - serializedVersion: 3
        time: 0.40000013
        value: -0.25202096
        inSlope: 2.6517172
        outSlope: 2.6517172
        tangentMode: 0
        weightedMode: 0
        inWeight: 0.33333334
        outWeight: 0.33333334
      - serializedVersion: 3
        time: 0.4166668
        value: -0.20772097
        inSlope: 2.6493247
        outSlope: 2.6493247
        tangentMode: 0
        weightedMode: 0
        inWeight: 0.33333334
        outWeight: 0.33333334
      - serializedVersion: 3
        time: 0.4333335
        value: -0.16371006
        inSlope: 2.6173024
        outSlope: 2.6173024
        tangentMode: 0
        weightedMode: 0
        inWeight: 0.33333334
        outWeight: 0.33333334
      - serializedVersion: 3
        time: 0.45000017
        value: -0.12047748
        inSlope: 2.55651
        outSlope: 2.55651
        tangentMode: 0
        weightedMode: 0
        inWeight: 0.33333334
        outWeight: 0.33333334
      - serializedVersion: 3
        time: 0.46666685
        value: -0.07849299
        inSlope: 2.468382
        outSlope: 2.468382
        tangentMode: 0
        weightedMode: 0
        inWeight: 0.33333334
        outWeight: 0.33333334
      - serializedVersion: 3
        time: 0.48333353
        value: -0.03819802
        inSlope: 2.354801
        outSlope: 2.354801
        tangentMode: 0
        weightedMode: 0
        inWeight: 0.33333334
        outWeight: 0.33333334
      - serializedVersion: 3
        time: 0.5000002
        value: 0.00000036808342
        inSlope: 2.2919054
        outSlope: 2.2919054
        tangentMode: 0
        weightedMode: 0
        inWeight: 0.33333334
        outWeight: 0.33333334
      - serializedVersion: 3
        time: 0.5166668
        value: 0.038198754
        inSlope: 2.3548028
        outSlope: 2.3548028
        tangentMode: 0
        weightedMode: 0
        inWeight: 0.33333334
        outWeight: 0.33333334
      - serializedVersion: 3
        time: 0.5333335
        value: 0.07849372
        inSlope: 2.4683857
        outSlope: 2.4683857
        tangentMode: 0
        weightedMode: 0
        inWeight: 0.33333334
        outWeight: 0.33333334
      - serializedVersion: 3
        time: 0.55000013
        value: 0.120478205
        inSlope: 2.5565119
        outSlope: 2.5565119
        tangentMode: 0
        weightedMode: 0
        inWeight: 0.33333334
        outWeight: 0.33333334
      - serializedVersion: 3
        time: 0.5666668
        value: 0.1637107
        inSlope: 2.6173038
        outSlope: 2.6173038
        tangentMode: 0
        weightedMode: 0
        inWeight: 0.33333334
        outWeight: 0.33333334
      - serializedVersion: 3
        time: 0.58333343
        value: 0.20772158
        inSlope: 2.6493263
        outSlope: 2.6493263
        tangentMode: 0
        weightedMode: 0
        inWeight: 0.33333334
        outWeight: 0.33333334
      - serializedVersion: 3
        time: 0.6000001
        value: 0.2520215
        inSlope: 2.6517172
        outSlope: 2.6517172
        tangentMode: 0
        weightedMode: 0
        inWeight: 0.33333334
        outWeight: 0.33333334
      - serializedVersion: 3
        time: 0.61666673
        value: 0.29611206
        inSlope: 2.6242757
        outSlope: 2.6242757
        tangentMode: 0
        weightedMode: 0
        inWeight: 0.33333334
        outWeight: 0.33333334
      - serializedVersion: 3
        time: 0.6333334
        value: 0.33949727
        inSlope: 2.567522
        outSlope: 2.567522
        tangentMode: 0
        weightedMode: 0
        inWeight: 0.33333334
        outWeight: 0.33333334
      - serializedVersion: 3
        time: 0.65000004
        value: 0.38169605
        inSlope: 2.4827302
        outSlope: 2.4827302
        tangentMode: 0
        weightedMode: 0
        inWeight: 0.33333334
        outWeight: 0.33333334
      - serializedVersion: 3
        time: 0.6666667
        value: 0.42225486
        inSlope: 2.3719225
        outSlope: 2.3719225
        tangentMode: 0
        weightedMode: 0
        inWeight: 0.33333334
        outWeight: 0.33333334
      - serializedVersion: 3
        time: 0.68333334
        value: 0.46076006
        inSlope: 2.237811
        outSlope: 2.237811
        tangentMode: 0
        weightedMode: 0
        inWeight: 0.33333334
        outWeight: 0.33333334
      - serializedVersion: 3
        time: 0.7
        value: 0.4968485
        inSlope: 2.0837421
        outSlope: 2.0837421
        tangentMode: 0
        weightedMode: 0
        inWeight: 0.33333334
        outWeight: 0.33333334
      - serializedVersion: 3
        time: 0.71666664
        value: 0.53021806
        inSlope: 1.9135854
        outSlope: 1.9135854
        tangentMode: 0
        weightedMode: 0
        inWeight: 0.33333334
        outWeight: 0.33333334
      - serializedVersion: 3
        time: 0.7333333
        value: 0.5606346
        inSlope: 1.7315893
        outSlope: 1.7315893
        tangentMode: 0
        weightedMode: 0
        inWeight: 0.33333334
        outWeight: 0.33333334
      - serializedVersion: 3
        time: 0.74999994
        value: 0.58793765
        inSlope: 1.5422537
        outSlope: 1.5422537
        tangentMode: 0
        weightedMode: 0
        inWeight: 0.33333334
        outWeight: 0.33333334
      - serializedVersion: 3
        time: 0.7666666
        value: 0.612043
        inSlope: 1.3501449
        outSlope: 1.3501449
        tangentMode: 0
        weightedMode: 0
        inWeight: 0.33333334
        outWeight: 0.33333334
      - serializedVersion: 3
        time: 0.78333324
        value: 0.63294244
        inSlope: 1.1597705
        outSlope: 1.1597705
        tangentMode: 0
        weightedMode: 0
        inWeight: 0.33333334
        outWeight: 0.33333334
      - serializedVersion: 3
        time: 0.7999999
        value: 0.650702
        inSlope: 0.9754149
        outSlope: 0.9754149
        tangentMode: 0
        weightedMode: 0
        inWeight: 0.33333334
        outWeight: 0.33333334
      - serializedVersion: 3
        time: 0.81666654
        value: 0.66545624
        inSlope: 0.80096376
        outSlope: 0.80096376
        tangentMode: 0
        weightedMode: 0
        inWeight: 0.33333334
        outWeight: 0.33333334
      - serializedVersion: 3
        time: 0.8333332
        value: 0.67740077
        inSlope: 0.63982725
        outSlope: 0.63982725
        tangentMode: 0
        weightedMode: 0
        inWeight: 0.33333334
        outWeight: 0.33333334
      - serializedVersion: 3
        time: 0.84999985
        value: 0.6867838
        inSlope: 0.49481082
        outSlope: 0.49481082
        tangentMode: 0
        weightedMode: 0
        inWeight: 0.33333334
        outWeight: 0.33333334
      - serializedVersion: 3
        time: 0.8666665
        value: 0.69389445
        inSlope: 0.36802804
        outSlope: 0.36802804
        tangentMode: 0
        weightedMode: 0
        inWeight: 0.33333334
        outWeight: 0.33333334
      - serializedVersion: 3
        time: 0.88333315
        value: 0.6990514
        inSlope: 0.26084507
        outSlope: 0.26084507
        tangentMode: 0
        weightedMode: 0
        inWeight: 0.33333334
        outWeight: 0.33333334
      - serializedVersion: 3
        time: 0.8999998
        value: 0.7025893
        inSlope: 0.17382342
        outSlope: 0.17382342
        tangentMode: 0
        weightedMode: 0
        inWeight: 0.33333334
        outWeight: 0.33333334
      - serializedVersion: 3
        time: 0.91666645
        value: 0.7048455
        inSlope: 0.106710896
        outSlope: 0.106710896
        tangentMode: 0
        weightedMode: 0
        inWeight: 0.33333334
        outWeight: 0.33333334
      - serializedVersion: 3
        time: 0.9333331
        value: 0.7061463
        inSlope: 0.058389958
        outSlope: 0.058389958
        tangentMode: 0
        weightedMode: 0
        inWeight: 0.33333334
        outWeight: 0.33333334
      - serializedVersion: 3
        time: 0.94999975
        value: 0.7067918
        inSlope: 0.026882913
        outSlope: 0.026882913
        tangentMode: 0
        weightedMode: 0
        inWeight: 0.33333334
        outWeight: 0.33333334
      - serializedVersion: 3
        time: 0.9666664
        value: 0.7070424
        inSlope: 0.009323367
        outSlope: 0.009323367
        tangentMode: 0
        weightedMode: 0
        inWeight: 0.33333334
        outWeight: 0.33333334
      - serializedVersion: 3
        time: 0.98333305
        value: 0.7071026
        inSlope: 0.0019311901
        outSlope: 0.0019311901
        tangentMode: 0
        weightedMode: 0
        inWeight: 0.33333334
        outWeight: 0.33333334
      - serializedVersion: 3
        time: 1
        value: 0.70710677
        inSlope: 0.00025033526
        outSlope: 0.00025033526
        tangentMode: 0
        weightedMode: 0
        inWeight: 0.33333334
        outWeight: 0.33333334
      m_PreInfinity: 2
      m_PostInfinity: 2
      m_RotationOrder: 4
    attribute: m_LocalRotation.x
    path: 
    classID: 4
    script: {fileID: 0}
  - curve:
      serializedVersion: 2
      m_Curve:
      - serializedVersion: 3
        time: 0
        value: -0
        inSlope: 0.14562753
        outSlope: 0.14562753
        tangentMode: 0
        weightedMode: 0
        inWeight: 0.33333334
        outWeight: 0.33333334
      - serializedVersion: 3
        time: 0.016666668
        value: 0.0024271256
        inSlope: 0.28631043
        outSlope: 0.28631043
        tangentMode: 0
        weightedMode: 0
        inWeight: 0.33333334
        outWeight: 0.33333334
      - serializedVersion: 3
        time: 0.033333335
        value: 0.0095436815
        inSlope: 0.56020314
        outSlope: 0.56020314
        tangentMode: 0
        weightedMode: 0
        inWeight: 0.33333334
        outWeight: 0.33333334
      - serializedVersion: 3
        time: 0.050000004
        value: 0.021100566
        inSlope: 0.81897306
        outSlope: 0.81897306
        tangentMode: 0
        weightedMode: 0
        inWeight: 0.33333334
        outWeight: 0.33333334
      - serializedVersion: 3
        time: 0.06666667
        value: 0.036842786
        inSlope: 1.0621083
        outSlope: 1.0621083
        tangentMode: 0
        weightedMode: 0
        inWeight: 0.33333334
        outWeight: 0.33333334
      - serializedVersion: 3
        time: 0.083333336
        value: 0.056504175
        inSlope: 1.288762
        outSlope: 1.288762
        tangentMode: 0
        weightedMode: 0
        inWeight: 0.33333334
        outWeight: 0.33333334
      - serializedVersion: 3
        time: 0.1
        value: 0.079801515
        inSlope: 1.497741
        outSlope: 1.497741
        tangentMode: 0
        weightedMode: 0
        inWeight: 0.33333334
        outWeight: 0.33333334
      - serializedVersion: 3
        time: 0.11666667
        value: 0.10642887
        inSlope: 1.6875396
        outSlope: 1.6875396
        tangentMode: 0
        weightedMode: 0
        inWeight: 0.33333334
        outWeight: 0.33333334
      - serializedVersion: 3
        time: 0.13333334
        value: 0.13605285
        inSlope: 1.8564055
        outSlope: 1.8564055
        tangentMode: 0
        weightedMode: 0
        inWeight: 0.33333334
        outWeight: 0.33333334
      - serializedVersion: 3
        time: 0.15
        value: 0.16830906
        inSlope: 2.00243
        outSlope: 2.00243
        tangentMode: 0
        weightedMode: 0
        inWeight: 0.33333334
        outWeight: 0.33333334
      - serializedVersion: 3
        time: 0.16666667
        value: 0.20280051
        inSlope: 2.12367
        outSlope: 2.12367
        tangentMode: 0
        weightedMode: 0
        inWeight: 0.33333334
        outWeight: 0.33333334
      - serializedVersion: 3
        time: 0.18333334
        value: 0.23909806
        inSlope: 2.2182736
        outSlope: 2.2182736
        tangentMode: 0
        weightedMode: 0
        inWeight: 0.33333334
        outWeight: 0.33333334
      - serializedVersion: 3
        time: 0.2
        value: 0.27674296
        inSlope: 2.2846115
        outSlope: 2.2846115
        tangentMode: 0
        weightedMode: 0
        inWeight: 0.33333334
        outWeight: 0.33333334
      - serializedVersion: 3
        time: 0.21666667
        value: 0.31525177
        inSlope: 2.3214092
        outSlope: 2.3214092
        tangentMode: 0
        weightedMode: 0
        inWeight: 0.33333334
        outWeight: 0.33333334
      - serializedVersion: 3
        time: 0.23333333
        value: 0.35412326
        inSlope: 2.3278713
        outSlope: 2.3278713
        tangentMode: 0
        weightedMode: 0
        inWeight: 0.33333334
        outWeight: 0.33333334
      - serializedVersion: 3
        time: 0.25
        value: 0.39284748
        inSlope: 2.3037844
        outSlope: 2.3037844
        tangentMode: 0
        weightedMode: 0
        inWeight: 0.33333334
        outWeight: 0.33333334
      - serializedVersion: 3
        time: 0.26666668
        value: 0.4309161
        inSlope: 2.2495964
        outSlope: 2.2495964
        tangentMode: 0
        weightedMode: 0
        inWeight: 0.33333334
        outWeight: 0.33333334
      - serializedVersion: 3
        time: 0.28333336
        value: 0.4678341
        inSlope: 2.1664677
        outSlope: 2.1664677
        tangentMode: 0
        weightedMode: 0
        inWeight: 0.33333334
        outWeight: 0.33333334
      - serializedVersion: 3
        time: 0.30000004
        value: 0.50313175
        inSlope: 2.0562844
        outSlope: 2.0562844
        tangentMode: 0
        weightedMode: 0
        inWeight: 0.33333334
        outWeight: 0.33333334
      - serializedVersion: 3
        time: 0.31666672
        value: 0.53637695
        inSlope: 1.9216528
        outSlope: 1.9216528
        tangentMode: 0
        weightedMode: 0
        inWeight: 0.33333334
        outWeight: 0.33333334
      - serializedVersion: 3
        time: 0.3333334
        value: 0.5671869
        inSlope: 1.7658308
        outSlope: 1.7658308
        tangentMode: 0
        weightedMode: 0
        inWeight: 0.33333334
        outWeight: 0.33333334
      - serializedVersion: 3
        time: 0.35000008
        value: 0.59523803
        inSlope: 1.5926621
        outSlope: 1.5926621
        tangentMode: 0
        weightedMode: 0
        inWeight: 0.33333334
        outWeight: 0.33333334
      - serializedVersion: 3
        time: 0.36666676
        value: 0.6202757
        inSlope: 1.4064527
        outSlope: 1.4064527
        tangentMode: 0
        weightedMode: 0
        inWeight: 0.33333334
        outWeight: 0.33333334
      - serializedVersion: 3
        time: 0.38333344
        value: 0.6421198
        inSlope: 1.2118406
        outSlope: 1.2118406
        tangentMode: 0
        weightedMode: 0
        inWeight: 0.33333334
        outWeight: 0.33333334
      - serializedVersion: 3
        time: 0.40000013
        value: 0.6606704
        inSlope: 1.0136524
        outSlope: 1.0136524
        tangentMode: 0
        weightedMode: 0
        inWeight: 0.33333334
        outWeight: 0.33333334
      - serializedVersion: 3
        time: 0.4166668
        value: 0.67590827
        inSlope: 0.8167248
        outSlope: 0.8167248
        tangentMode: 0
        weightedMode: 0
        inWeight: 0.33333334
        outWeight: 0.33333334
      - serializedVersion: 3
        time: 0.4333335
        value: 0.6878946
        inSlope: 0.62578034
        outSlope: 0.62578034
        tangentMode: 0
        weightedMode: 0
        inWeight: 0.33333334
        outWeight: 0.33333334
      - serializedVersion: 3
        time: 0.45000017
        value: 0.6967676
        inSlope: 0.44526243
        outSlope: 0.44526243
        tangentMode: 0
        weightedMode: 0
        inWeight: 0.33333334
        outWeight: 0.33333334
      - serializedVersion: 3
        time: 0.46666685
        value: 0.7027367
        inSlope: 0.27919984
        outSlope: 0.27919984
        tangentMode: 0
        weightedMode: 0
        inWeight: 0.33333334
        outWeight: 0.33333334
      - serializedVersion: 3
        time: 0.48333353
        value: 0.7060743
        inSlope: 0.13110274
        outSlope: 0.13110274
        tangentMode: 0
        weightedMode: 0
        inWeight: 0.33333334
        outWeight: 0.33333334
      - serializedVersion: 3
        time: 0.5000002
        value: 0.70710677
        inSlope: -0.0000017881393
        outSlope: -0.0000017881393
        tangentMode: 0
        weightedMode: 0
        inWeight: 0.33333334
        outWeight: 0.33333334
      - serializedVersion: 3
        time: 0.5166668
        value: 0.70607424
        inSlope: -0.13110471
        outSlope: -0.13110471
        tangentMode: 0
        weightedMode: 0
        inWeight: 0.33333334
        outWeight: 0.33333334
      - serializedVersion: 3
        time: 0.5333335
        value: 0.7027366
        inSlope: -0.27920213
        outSlope: -0.27920213
        tangentMode: 0
        weightedMode: 0
        inWeight: 0.33333334
        outWeight: 0.33333334
      - serializedVersion: 3
        time: 0.55000013
        value: 0.6967675
        inSlope: -0.445265
        outSlope: -0.445265
        tangentMode: 0
        weightedMode: 0
        inWeight: 0.33333334
        outWeight: 0.33333334
      - serializedVersion: 3
        time: 0.5666668
        value: 0.68789446
        inSlope: -0.6257832
        outSlope: -0.6257832
        tangentMode: 0
        weightedMode: 0
        inWeight: 0.33333334
        outWeight: 0.33333334
      - serializedVersion: 3
        time: 0.58333343
        value: 0.6759081
        inSlope: -0.8167281
        outSlope: -0.8167281
        tangentMode: 0
        weightedMode: 0
        inWeight: 0.33333334
        outWeight: 0.33333334
      - serializedVersion: 3
        time: 0.6000001
        value: 0.6606702
        inSlope: -1.0136542
        outSlope: -1.0136542
        tangentMode: 0
        weightedMode: 0
        inWeight: 0.33333334
        outWeight: 0.33333334
      - serializedVersion: 3
        time: 0.61666673
        value: 0.64211965
        inSlope: -1.2118447
        outSlope: -1.2118447
        tangentMode: 0
        weightedMode: 0
        inWeight: 0.33333334
        outWeight: 0.33333334
      - serializedVersion: 3
        time: 0.6333334
        value: 0.62027544
        inSlope: -1.4064552
        outSlope: -1.4064552
        tangentMode: 0
        weightedMode: 0
        inWeight: 0.33333334
        outWeight: 0.33333334
      - serializedVersion: 3
        time: 0.65000004
        value: 0.59523785
        inSlope: -1.5926614
        outSlope: -1.5926614
        tangentMode: 0
        weightedMode: 0
        inWeight: 0.33333334
        outWeight: 0.33333334
      - serializedVersion: 3
        time: 0.6666667
        value: 0.5671868
        inSlope: -1.7658304
        outSlope: -1.7658304
        tangentMode: 0
        weightedMode: 0
        inWeight: 0.33333334
        outWeight: 0.33333334
      - serializedVersion: 3
        time: 0.68333334
        value: 0.5363769
        inSlope: -1.9216526
        outSlope: -1.9216526
        tangentMode: 0
        weightedMode: 0
        inWeight: 0.33333334
        outWeight: 0.33333334
      - serializedVersion: 3
        time: 0.7
        value: 0.50313175
        inSlope: -2.0562844
        outSlope: -2.0562844
        tangentMode: 0
        weightedMode: 0
        inWeight: 0.33333334
        outWeight: 0.33333334
      - serializedVersion: 3
        time: 0.71666664
        value: 0.46783414
        inSlope: -2.1664686
        outSlope: -2.1664686
        tangentMode: 0
        weightedMode: 0
        inWeight: 0.33333334
        outWeight: 0.33333334
      - serializedVersion: 3
        time: 0.7333333
        value: 0.4309162
        inSlope: -2.2495959
        outSlope: -2.2495959
        tangentMode: 0
        weightedMode: 0
        inWeight: 0.33333334
        outWeight: 0.33333334
      - serializedVersion: 3
        time: 0.74999994
        value: 0.3928477
        inSlope: -2.3037863
        outSlope: -2.3037863
        tangentMode: 0
        weightedMode: 0
        inWeight: 0.33333334
        outWeight: 0.33333334
      - serializedVersion: 3
        time: 0.7666666
        value: 0.35412338
        inSlope: -2.3278728
        outSlope: -2.3278728
        tangentMode: 0
        weightedMode: 0
        inWeight: 0.33333334
        outWeight: 0.33333334
      - serializedVersion: 3
        time: 0.78333324
        value: 0.315252
        inSlope: -2.321406
        outSlope: -2.321406
        tangentMode: 0
        weightedMode: 0
        inWeight: 0.33333334
        outWeight: 0.33333334
      - serializedVersion: 3
        time: 0.7999999
        value: 0.27674326
        inSlope: -2.284614
        outSlope: -2.284614
        tangentMode: 0
        weightedMode: 0
        inWeight: 0.33333334
        outWeight: 0.33333334
      - serializedVersion: 3
        time: 0.81666654
        value: 0.23909828
        inSlope: -2.218275
        outSlope: -2.218275
        tangentMode: 0
        weightedMode: 0
        inWeight: 0.33333334
        outWeight: 0.33333334
      - serializedVersion: 3
        time: 0.8333332
        value: 0.20280083
        inSlope: -2.12367
        outSlope: -2.12367
        tangentMode: 0
        weightedMode: 0
        inWeight: 0.33333334
        outWeight: 0.33333334
      - serializedVersion: 3
        time: 0.84999985
        value: 0.16830935
        inSlope: -2.0024333
        outSlope: -2.0024333
        tangentMode: 0
        weightedMode: 0
        inWeight: 0.33333334
        outWeight: 0.33333334
      - serializedVersion: 3
        time: 0.8666665
        value: 0.13605312
        inSlope: -1.8564036
        outSlope: -1.8564036
        tangentMode: 0
        weightedMode: 0
        inWeight: 0.33333334
        outWeight: 0.33333334
      - serializedVersion: 3
        time: 0.88333315
        value: 0.10642929
        inSlope: -1.6875396
        outSlope: -1.6875396
        tangentMode: 0
        weightedMode: 0
        inWeight: 0.33333334
        outWeight: 0.33333334
      - serializedVersion: 3
        time: 0.8999998
        value: 0.07980185
        inSlope: -1.4977427
        outSlope: -1.4977427
        tangentMode: 0
        weightedMode: 0
        inWeight: 0.33333334
        outWeight: 0.33333334
      - serializedVersion: 3
        time: 0.91666645
        value: 0.056504577
        inSlope: -1.2887609
        outSlope: -1.2887609
        tangentMode: 0
        weightedMode: 0
        inWeight: 0.33333334
        outWeight: 0.33333334
      - serializedVersion: 3
        time: 0.9333331
        value: 0.036843196
        inSlope: -1.0621109
        outSlope: -1.0621109
        tangentMode: 0
        weightedMode: 0
        inWeight: 0.33333334
        outWeight: 0.33333334
      - serializedVersion: 3
        time: 0.94999975
        value: 0.021100912
        inSlope: -0.81898004
        outSlope: -0.81898004
        tangentMode: 0
        weightedMode: 0
        inWeight: 0.33333334
        outWeight: 0.33333334
      - serializedVersion: 3
        time: 0.9666664
        value: 0.009543886
        inSlope: -0.5602102
        outSlope: -0.5602102
        tangentMode: 0
        weightedMode: 0
        inWeight: 0.33333334
        outWeight: 0.33333334
      - serializedVersion: 3
        time: 0.98333305
        value: 0.0024272548
        inSlope: -0.28631744
        outSlope: -0.28631744
        tangentMode: 0
        weightedMode: 0
        inWeight: 0.33333334
        outWeight: 0.33333334
      - serializedVersion: 3
        time: 1
        value: -0.00000006181724
        inSlope: -0.14563654
        outSlope: -0.14563654
        tangentMode: 0
        weightedMode: 0
        inWeight: 0.33333334
        outWeight: 0.33333334
      m_PreInfinity: 2
      m_PostInfinity: 2
      m_RotationOrder: 4
    attribute: m_LocalRotation.y
    path: 
    classID: 4
    script: {fileID: 0}
  - curve:
      serializedVersion: 2
      m_Curve:
      - serializedVersion: 3
        time: 0
        value: -0
        inSlope: -0.14562753
        outSlope: -0.14562753
        tangentMode: 0
        weightedMode: 0
        inWeight: 0.33333334
        outWeight: 0.33333334
      - serializedVersion: 3
        time: 0.016666668
        value: -0.0024271256
        inSlope: -0.28631043
        outSlope: -0.28631043
        tangentMode: 0
        weightedMode: 0
        inWeight: 0.33333334
        outWeight: 0.33333334
      - serializedVersion: 3
        time: 0.033333335
        value: -0.0095436815
        inSlope: -0.56020314
        outSlope: -0.56020314
        tangentMode: 0
        weightedMode: 0
        inWeight: 0.33333334
        outWeight: 0.33333334
      - serializedVersion: 3
        time: 0.050000004
        value: -0.021100566
        inSlope: -0.81897306
        outSlope: -0.81897306
        tangentMode: 0
        weightedMode: 0
        inWeight: 0.33333334
        outWeight: 0.33333334
      - serializedVersion: 3
        time: 0.06666667
        value: -0.036842786
        inSlope: -1.0621083
        outSlope: -1.0621083
        tangentMode: 0
        weightedMode: 0
        inWeight: 0.33333334
        outWeight: 0.33333334
      - serializedVersion: 3
        time: 0.083333336
        value: -0.056504175
        inSlope: -1.288762
        outSlope: -1.288762
        tangentMode: 0
        weightedMode: 0
        inWeight: 0.33333334
        outWeight: 0.33333334
      - serializedVersion: 3
        time: 0.1
        value: -0.079801515
        inSlope: -1.497741
        outSlope: -1.497741
        tangentMode: 0
        weightedMode: 0
        inWeight: 0.33333334
        outWeight: 0.33333334
      - serializedVersion: 3
        time: 0.11666667
        value: -0.10642887
        inSlope: -1.6875396
        outSlope: -1.6875396
        tangentMode: 0
        weightedMode: 0
        inWeight: 0.33333334
        outWeight: 0.33333334
      - serializedVersion: 3
        time: 0.13333334
        value: -0.13605285
        inSlope: -1.8564055
        outSlope: -1.8564055
        tangentMode: 0
        weightedMode: 0
        inWeight: 0.33333334
        outWeight: 0.33333334
      - serializedVersion: 3
        time: 0.15
        value: -0.16830906
        inSlope: -2.00243
        outSlope: -2.00243
        tangentMode: 0
        weightedMode: 0
        inWeight: 0.33333334
        outWeight: 0.33333334
      - serializedVersion: 3
        time: 0.16666667
        value: -0.20280051
        inSlope: -2.12367
        outSlope: -2.12367
        tangentMode: 0
        weightedMode: 0
        inWeight: 0.33333334
        outWeight: 0.33333334
      - serializedVersion: 3
        time: 0.18333334
        value: -0.23909806
        inSlope: -2.2182736
        outSlope: -2.2182736
        tangentMode: 0
        weightedMode: 0
        inWeight: 0.33333334
        outWeight: 0.33333334
      - serializedVersion: 3
        time: 0.2
        value: -0.27674296
        inSlope: -2.2846115
        outSlope: -2.2846115
        tangentMode: 0
        weightedMode: 0
        inWeight: 0.33333334
        outWeight: 0.33333334
      - serializedVersion: 3
        time: 0.21666667
        value: -0.31525177
        inSlope: -2.3214092
        outSlope: -2.3214092
        tangentMode: 0
        weightedMode: 0
        inWeight: 0.33333334
        outWeight: 0.33333334
      - serializedVersion: 3
        time: 0.23333333
        value: -0.35412326
        inSlope: -2.3278713
        outSlope: -2.3278713
        tangentMode: 0
        weightedMode: 0
        inWeight: 0.33333334
        outWeight: 0.33333334
      - serializedVersion: 3
        time: 0.25
        value: -0.39284748
        inSlope: -2.3037844
        outSlope: -2.3037844
        tangentMode: 0
        weightedMode: 0
        inWeight: 0.33333334
        outWeight: 0.33333334
      - serializedVersion: 3
        time: 0.26666668
        value: -0.4309161
        inSlope: -2.2495964
        outSlope: -2.2495964
        tangentMode: 0
        weightedMode: 0
        inWeight: 0.33333334
        outWeight: 0.33333334
      - serializedVersion: 3
        time: 0.28333336
        value: -0.4678341
        inSlope: -2.1664677
        outSlope: -2.1664677
        tangentMode: 0
        weightedMode: 0
        inWeight: 0.33333334
        outWeight: 0.33333334
      - serializedVersion: 3
        time: 0.30000004
        value: -0.50313175
        inSlope: -2.0562844
        outSlope: -2.0562844
        tangentMode: 0
        weightedMode: 0
        inWeight: 0.33333334
        outWeight: 0.33333334
      - serializedVersion: 3
        time: 0.31666672
        value: -0.53637695
        inSlope: -1.9216528
        outSlope: -1.9216528
        tangentMode: 0
        weightedMode: 0
        inWeight: 0.33333334
        outWeight: 0.33333334
      - serializedVersion: 3
        time: 0.3333334
        value: -0.5671869
        inSlope: -1.7658308
        outSlope: -1.7658308
        tangentMode: 0
        weightedMode: 0
        inWeight: 0.33333334
        outWeight: 0.33333334
      - serializedVersion: 3
        time: 0.35000008
        value: -0.59523803
        inSlope: -1.5926621
        outSlope: -1.5926621
        tangentMode: 0
        weightedMode: 0
        inWeight: 0.33333334
        outWeight: 0.33333334
      - serializedVersion: 3
        time: 0.36666676
        value: -0.6202757
        inSlope: -1.4064527
        outSlope: -1.4064527
        tangentMode: 0
        weightedMode: 0
        inWeight: 0.33333334
        outWeight: 0.33333334
      - serializedVersion: 3
        time: 0.38333344
        value: -0.6421198
        inSlope: -1.2118406
        outSlope: -1.2118406
        tangentMode: 0
        weightedMode: 0
        inWeight: 0.33333334
        outWeight: 0.33333334
      - serializedVersion: 3
        time: 0.40000013
        value: -0.6606704
        inSlope: -1.0136524
        outSlope: -1.0136524
        tangentMode: 0
        weightedMode: 0
        inWeight: 0.33333334
        outWeight: 0.33333334
      - serializedVersion: 3
        time: 0.4166668
        value: -0.67590827
        inSlope: -0.8167248
        outSlope: -0.8167248
        tangentMode: 0
        weightedMode: 0
        inWeight: 0.33333334
        outWeight: 0.33333334
      - serializedVersion: 3
        time: 0.4333335
        value: -0.6878946
        inSlope: -0.62578034
        outSlope: -0.62578034
        tangentMode: 0
        weightedMode: 0
        inWeight: 0.33333334
        outWeight: 0.33333334
      - serializedVersion: 3
        time: 0.45000017
        value: -0.6967676
        inSlope: -0.44526243
        outSlope: -0.44526243
        tangentMode: 0
        weightedMode: 0
        inWeight: 0.33333334
        outWeight: 0.33333334
      - serializedVersion: 3
        time: 0.46666685
        value: -0.7027367
        inSlope: -0.27919984
        outSlope: -0.27919984
        tangentMode: 0
        weightedMode: 0
        inWeight: 0.33333334
        outWeight: 0.33333334
      - serializedVersion: 3
        time: 0.48333353
        value: -0.7060743
        inSlope: -0.13110274
        outSlope: -0.13110274
        tangentMode: 0
        weightedMode: 0
        inWeight: 0.33333334
        outWeight: 0.33333334
      - serializedVersion: 3
        time: 0.5000002
        value: -0.70710677
        inSlope: 0.0000017881393
        outSlope: 0.0000017881393
        tangentMode: 0
        weightedMode: 0
        inWeight: 0.33333334
        outWeight: 0.33333334
      - serializedVersion: 3
        time: 0.5166668
        value: -0.70607424
        inSlope: 0.13110471
        outSlope: 0.13110471
        tangentMode: 0
        weightedMode: 0
        inWeight: 0.33333334
        outWeight: 0.33333334
      - serializedVersion: 3
        time: 0.5333335
        value: -0.7027366
        inSlope: 0.27920213
        outSlope: 0.27920213
        tangentMode: 0
        weightedMode: 0
        inWeight: 0.33333334
        outWeight: 0.33333334
      - serializedVersion: 3
        time: 0.55000013
        value: -0.6967675
        inSlope: 0.445265
        outSlope: 0.445265
        tangentMode: 0
        weightedMode: 0
        inWeight: 0.33333334
        outWeight: 0.33333334
      - serializedVersion: 3
        time: 0.5666668
        value: -0.68789446
        inSlope: 0.6257832
        outSlope: 0.6257832
        tangentMode: 0
        weightedMode: 0
        inWeight: 0.33333334
        outWeight: 0.33333334
      - serializedVersion: 3
        time: 0.58333343
        value: -0.6759081
        inSlope: 0.8167281
        outSlope: 0.8167281
        tangentMode: 0
        weightedMode: 0
        inWeight: 0.33333334
        outWeight: 0.33333334
      - serializedVersion: 3
        time: 0.6000001
        value: -0.6606702
        inSlope: 1.0136542
        outSlope: 1.0136542
        tangentMode: 0
        weightedMode: 0
        inWeight: 0.33333334
        outWeight: 0.33333334
      - serializedVersion: 3
        time: 0.61666673
        value: -0.64211965
        inSlope: 1.2118447
        outSlope: 1.2118447
        tangentMode: 0
        weightedMode: 0
        inWeight: 0.33333334
        outWeight: 0.33333334
      - serializedVersion: 3
        time: 0.6333334
        value: -0.62027544
        inSlope: 1.4064552
        outSlope: 1.4064552
        tangentMode: 0
        weightedMode: 0
        inWeight: 0.33333334
        outWeight: 0.33333334
      - serializedVersion: 3
        time: 0.65000004
        value: -0.59523785
        inSlope: 1.5926614
        outSlope: 1.5926614
        tangentMode: 0
        weightedMode: 0
        inWeight: 0.33333334
        outWeight: 0.33333334
      - serializedVersion: 3
        time: 0.6666667
        value: -0.5671868
        inSlope: 1.7658304
        outSlope: 1.7658304
        tangentMode: 0
        weightedMode: 0
        inWeight: 0.33333334
        outWeight: 0.33333334
      - serializedVersion: 3
        time: 0.68333334
        value: -0.5363769
        inSlope: 1.9216526
        outSlope: 1.9216526
        tangentMode: 0
        weightedMode: 0
        inWeight: 0.33333334
        outWeight: 0.33333334
      - serializedVersion: 3
        time: 0.7
        value: -0.50313175
        inSlope: 2.0562844
        outSlope: 2.0562844
        tangentMode: 0
        weightedMode: 0
        inWeight: 0.33333334
        outWeight: 0.33333334
      - serializedVersion: 3
        time: 0.71666664
        value: -0.46783414
        inSlope: 2.1664686
        outSlope: 2.1664686
        tangentMode: 0
        weightedMode: 0
        inWeight: 0.33333334
        outWeight: 0.33333334
      - serializedVersion: 3
        time: 0.7333333
        value: -0.4309162
        inSlope: 2.2495959
        outSlope: 2.2495959
        tangentMode: 0
        weightedMode: 0
        inWeight: 0.33333334
        outWeight: 0.33333334
      - serializedVersion: 3
        time: 0.74999994
        value: -0.3928477
        inSlope: 2.3037863
        outSlope: 2.3037863
        tangentMode: 0
        weightedMode: 0
        inWeight: 0.33333334
        outWeight: 0.33333334
      - serializedVersion: 3
        time: 0.7666666
        value: -0.35412338
        inSlope: 2.3278728
        outSlope: 2.3278728
        tangentMode: 0
        weightedMode: 0
        inWeight: 0.33333334
        outWeight: 0.33333334
      - serializedVersion: 3
        time: 0.78333324
        value: -0.315252
        inSlope: 2.321406
        outSlope: 2.321406
        tangentMode: 0
        weightedMode: 0
        inWeight: 0.33333334
        outWeight: 0.33333334
      - serializedVersion: 3
        time: 0.7999999
        value: -0.27674326
        inSlope: 2.284614
        outSlope: 2.284614
        tangentMode: 0
        weightedMode: 0
        inWeight: 0.33333334
        outWeight: 0.33333334
      - serializedVersion: 3
        time: 0.81666654
        value: -0.23909828
        inSlope: 2.218275
        outSlope: 2.218275
        tangentMode: 0
        weightedMode: 0
        inWeight: 0.33333334
        outWeight: 0.33333334
      - serializedVersion: 3
        time: 0.8333332
        value: -0.20280083
        inSlope: 2.12367
        outSlope: 2.12367
        tangentMode: 0
        weightedMode: 0
        inWeight: 0.33333334
        outWeight: 0.33333334
      - serializedVersion: 3
        time: 0.84999985
        value: -0.16830935
        inSlope: 2.0024333
        outSlope: 2.0024333
        tangentMode: 0
        weightedMode: 0
        inWeight: 0.33333334
        outWeight: 0.33333334
      - serializedVersion: 3
        time: 0.8666665
        value: -0.13605312
        inSlope: 1.8564036
        outSlope: 1.8564036
        tangentMode: 0
        weightedMode: 0
        inWeight: 0.33333334
        outWeight: 0.33333334
      - serializedVersion: 3
        time: 0.88333315
        value: -0.10642929
        inSlope: 1.6875396
        outSlope: 1.6875396
        tangentMode: 0
        weightedMode: 0
        inWeight: 0.33333334
        outWeight: 0.33333334
      - serializedVersion: 3
        time: 0.8999998
        value: -0.07980185
        inSlope: 1.4977427
        outSlope: 1.4977427
        tangentMode: 0
        weightedMode: 0
        inWeight: 0.33333334
        outWeight: 0.33333334
      - serializedVersion: 3
        time: 0.91666645
        value: -0.056504577
        inSlope: 1.2887609
        outSlope: 1.2887609
        tangentMode: 0
        weightedMode: 0
        inWeight: 0.33333334
        outWeight: 0.33333334
      - serializedVersion: 3
        time: 0.9333331
        value: -0.036843196
        inSlope: 1.0621109
        outSlope: 1.0621109
        tangentMode: 0
        weightedMode: 0
        inWeight: 0.33333334
        outWeight: 0.33333334
      - serializedVersion: 3
        time: 0.94999975
        value: -0.021100912
        inSlope: 0.81898004
        outSlope: 0.81898004
        tangentMode: 0
        weightedMode: 0
        inWeight: 0.33333334
        outWeight: 0.33333334
      - serializedVersion: 3
        time: 0.9666664
        value: -0.009543886
        inSlope: 0.5602102
        outSlope: 0.5602102
        tangentMode: 0
        weightedMode: 0
        inWeight: 0.33333334
        outWeight: 0.33333334
      - serializedVersion: 3
        time: 0.98333305
        value: -0.0024272548
        inSlope: 0.28631744
        outSlope: 0.28631744
        tangentMode: 0
        weightedMode: 0
        inWeight: 0.33333334
        outWeight: 0.33333334
      - serializedVersion: 3
        time: 1
        value: 0.00000006181724
        inSlope: 0.14563654
        outSlope: 0.14563654
        tangentMode: 0
        weightedMode: 0
        inWeight: 0.33333334
        outWeight: 0.33333334
      m_PreInfinity: 2
      m_PostInfinity: 2
      m_RotationOrder: 4
    attribute: m_LocalRotation.z
    path: 
    classID: 4
    script: {fileID: 0}
  - curve:
      serializedVersion: 2
      m_Curve:
      - serializedVersion: 3
        time: 0
        value: -0.70710677
        inSlope: 0.0002503395
        outSlope: 0.0002503395
        tangentMode: 0
        weightedMode: 0
        inWeight: 0.33333334
        outWeight: 0.33333334
      - serializedVersion: 3
        time: 0.016666668
        value: -0.7071026
        inSlope: 0.0019311904
        outSlope: 0.0019311904
        tangentMode: 0
        weightedMode: 0
        inWeight: 0.33333334
        outWeight: 0.33333334
      - serializedVersion: 3
        time: 0.033333335
        value: -0.7070424
        inSlope: 0.0093215685
        outSlope: 0.0093215685
        tangentMode: 0
        weightedMode: 0
        inWeight: 0.33333334
        outWeight: 0.33333334
      - serializedVersion: 3
        time: 0.050000004
        value: -0.7067919
        inSlope: 0.026882887
        outSlope: 0.026882887
        tangentMode: 0
        weightedMode: 0
        inWeight: 0.33333334
        outWeight: 0.33333334
      - serializedVersion: 3
        time: 0.06666667
        value: -0.7061463
        inSlope: 0.05838991
        outSlope: 0.05838991
        tangentMode: 0
        weightedMode: 0
        inWeight: 0.33333334
        outWeight: 0.33333334
      - serializedVersion: 3
        time: 0.083333336
        value: -0.70484555
        inSlope: 0.10671081
        outSlope: 0.10671081
        tangentMode: 0
        weightedMode: 0
        inWeight: 0.33333334
        outWeight: 0.33333334
      - serializedVersion: 3
        time: 0.1
        value: -0.7025893
        inSlope: 0.17382325
        outSlope: 0.17382325
        tangentMode: 0
        weightedMode: 0
        inWeight: 0.33333334
        outWeight: 0.33333334
      - serializedVersion: 3
        time: 0.11666667
        value: -0.69905144
        inSlope: 0.26084298
        outSlope: 0.26084298
        tangentMode: 0
        weightedMode: 0
        inWeight: 0.33333334
        outWeight: 0.33333334
      - serializedVersion: 3
        time: 0.13333334
        value: -0.6938945
        inSlope: 0.36802763
        outSlope: 0.36802763
        tangentMode: 0
        weightedMode: 0
        inWeight: 0.33333334
        outWeight: 0.33333334
      - serializedVersion: 3
        time: 0.15
        value: -0.68678385
        inSlope: 0.4948086
        outSlope: 0.4948086
        tangentMode: 0
        weightedMode: 0
        inWeight: 0.33333334
        outWeight: 0.33333334
      - serializedVersion: 3
        time: 0.16666667
        value: -0.6774009
        inSlope: 0.6398249
        outSlope: 0.6398249
        tangentMode: 0
        weightedMode: 0
        inWeight: 0.33333334
        outWeight: 0.33333334
      - serializedVersion: 3
        time: 0.18333334
        value: -0.66545635
        inSlope: 0.8009631
        outSlope: 0.8009631
        tangentMode: 0
        weightedMode: 0
        inWeight: 0.33333334
        outWeight: 0.33333334
      - serializedVersion: 3
        time: 0.2
        value: -0.6507021
        inSlope: 0.97541404
        outSlope: 0.97541404
        tangentMode: 0
        weightedMode: 0
        inWeight: 0.33333334
        outWeight: 0.33333334
      - serializedVersion: 3
        time: 0.21666667
        value: -0.63294256
        inSlope: 1.159773
        outSlope: 1.159773
        tangentMode: 0
        weightedMode: 0
        inWeight: 0.33333334
        outWeight: 0.33333334
      - serializedVersion: 3
        time: 0.23333333
        value: -0.612043
        inSlope: 1.3501437
        outSlope: 1.3501437
        tangentMode: 0
        weightedMode: 0
        inWeight: 0.33333334
        outWeight: 0.33333334
      - serializedVersion: 3
        time: 0.25
        value: -0.5879378
        inSlope: 1.5422481
        outSlope: 1.5422481
        tangentMode: 0
        weightedMode: 0
        inWeight: 0.33333334
        outWeight: 0.33333334
      - serializedVersion: 3
        time: 0.26666668
        value: -0.56063473
        inSlope: 1.7315898
        outSlope: 1.7315898
        tangentMode: 0
        weightedMode: 0
        inWeight: 0.33333334
        outWeight: 0.33333334
      - serializedVersion: 3
        time: 0.28333336
        value: -0.53021806
        inSlope: 1.9135854
        outSlope: 1.9135854
        tangentMode: 0
        weightedMode: 0
        inWeight: 0.33333334
        outWeight: 0.33333334
      - serializedVersion: 3
        time: 0.30000004
        value: -0.4968485
        inSlope: 2.0837412
        outSlope: 2.0837412
        tangentMode: 0
        weightedMode: 0
        inWeight: 0.33333334
        outWeight: 0.33333334
      - serializedVersion: 3
        time: 0.31666672
        value: -0.46075997
        inSlope: 2.2378106
        outSlope: 2.2378106
        tangentMode: 0
        weightedMode: 0
        inWeight: 0.33333334
        outWeight: 0.33333334
      - serializedVersion: 3
        time: 0.3333334
        value: -0.42225474
        inSlope: 2.3719244
        outSlope: 2.3719244
        tangentMode: 0
        weightedMode: 0
        inWeight: 0.33333334
        outWeight: 0.33333334
      - serializedVersion: 3
        time: 0.35000008
        value: -0.38169575
        inSlope: 2.4827347
        outSlope: 2.4827347
        tangentMode: 0
        weightedMode: 0
        inWeight: 0.33333334
        outWeight: 0.33333334
      - serializedVersion: 3
        time: 0.36666676
        value: -0.33949685
        inSlope: 2.5675218
        outSlope: 2.5675218
        tangentMode: 0
        weightedMode: 0
        inWeight: 0.33333334
        outWeight: 0.33333334
      - serializedVersion: 3
        time: 0.38333344
        value: -0.2961116
        inSlope: 2.6242747
        outSlope: 2.6242747
        tangentMode: 0
        weightedMode: 0
        inWeight: 0.33333334
        outWeight: 0.33333334
      - serializedVersion: 3
        time: 0.40000013
        value: -0.25202096
        inSlope: 2.6517172
        outSlope: 2.6517172
        tangentMode: 0
        weightedMode: 0
        inWeight: 0.33333334
        outWeight: 0.33333334
      - serializedVersion: 3
        time: 0.4166668
        value: -0.20772097
        inSlope: 2.6493247
        outSlope: 2.6493247
        tangentMode: 0
        weightedMode: 0
        inWeight: 0.33333334
        outWeight: 0.33333334
      - serializedVersion: 3
        time: 0.4333335
        value: -0.16371006
        inSlope: 2.6173024
        outSlope: 2.6173024
        tangentMode: 0
        weightedMode: 0
        inWeight: 0.33333334
        outWeight: 0.33333334
      - serializedVersion: 3
        time: 0.45000017
        value: -0.12047748
        inSlope: 2.55651
        outSlope: 2.55651
        tangentMode: 0
        weightedMode: 0
        inWeight: 0.33333334
        outWeight: 0.33333334
      - serializedVersion: 3
        time: 0.46666685
        value: -0.07849299
        inSlope: 2.468382
        outSlope: 2.468382
        tangentMode: 0
        weightedMode: 0
        inWeight: 0.33333334
        outWeight: 0.33333334
      - serializedVersion: 3
        time: 0.48333353
        value: -0.03819802
        inSlope: 2.354801
        outSlope: 2.354801
        tangentMode: 0
        weightedMode: 0
        inWeight: 0.33333334
        outWeight: 0.33333334
      - serializedVersion: 3
        time: 0.5000002
        value: 0.00000036808342
        inSlope: 2.2919054
        outSlope: 2.2919054
        tangentMode: 0
        weightedMode: 0
        inWeight: 0.33333334
        outWeight: 0.33333334
      - serializedVersion: 3
        time: 0.5166668
        value: 0.038198754
        inSlope: 2.3548028
        outSlope: 2.3548028
        tangentMode: 0
        weightedMode: 0
        inWeight: 0.33333334
        outWeight: 0.33333334
      - serializedVersion: 3
        time: 0.5333335
        value: 0.07849372
        inSlope: 2.4683857
        outSlope: 2.4683857
        tangentMode: 0
        weightedMode: 0
        inWeight: 0.33333334
        outWeight: 0.33333334
      - serializedVersion: 3
        time: 0.55000013
        value: 0.120478205
        inSlope: 2.5565119
        outSlope: 2.5565119
        tangentMode: 0
        weightedMode: 0
        inWeight: 0.33333334
        outWeight: 0.33333334
      - serializedVersion: 3
        time: 0.5666668
        value: 0.1637107
        inSlope: 2.6173038
        outSlope: 2.6173038
        tangentMode: 0
        weightedMode: 0
        inWeight: 0.33333334
        outWeight: 0.33333334
      - serializedVersion: 3
        time: 0.58333343
        value: 0.20772158
        inSlope: 2.6493263
        outSlope: 2.6493263
        tangentMode: 0
        weightedMode: 0
        inWeight: 0.33333334
        outWeight: 0.33333334
      - serializedVersion: 3
        time: 0.6000001
        value: 0.2520215
        inSlope: 2.6517172
        outSlope: 2.6517172
        tangentMode: 0
        weightedMode: 0
        inWeight: 0.33333334
        outWeight: 0.33333334
      - serializedVersion: 3
        time: 0.61666673
        value: 0.29611206
        inSlope: 2.6242757
        outSlope: 2.6242757
        tangentMode: 0
        weightedMode: 0
        inWeight: 0.33333334
        outWeight: 0.33333334
      - serializedVersion: 3
        time: 0.6333334
        value: 0.33949727
        inSlope: 2.567522
        outSlope: 2.567522
        tangentMode: 0
        weightedMode: 0
        inWeight: 0.33333334
        outWeight: 0.33333334
      - serializedVersion: 3
        time: 0.65000004
        value: 0.38169605
        inSlope: 2.4827302
        outSlope: 2.4827302
        tangentMode: 0
        weightedMode: 0
        inWeight: 0.33333334
        outWeight: 0.33333334
      - serializedVersion: 3
        time: 0.6666667
        value: 0.42225486
        inSlope: 2.3719225
        outSlope: 2.3719225
        tangentMode: 0
        weightedMode: 0
        inWeight: 0.33333334
        outWeight: 0.33333334
      - serializedVersion: 3
        time: 0.68333334
        value: 0.46076006
        inSlope: 2.237811
        outSlope: 2.237811
        tangentMode: 0
        weightedMode: 0
        inWeight: 0.33333334
        outWeight: 0.33333334
      - serializedVersion: 3
        time: 0.7
        value: 0.4968485
        inSlope: 2.0837421
        outSlope: 2.0837421
        tangentMode: 0
        weightedMode: 0
        inWeight: 0.33333334
        outWeight: 0.33333334
      - serializedVersion: 3
        time: 0.71666664
        value: 0.53021806
        inSlope: 1.9135854
        outSlope: 1.9135854
        tangentMode: 0
        weightedMode: 0
        inWeight: 0.33333334
        outWeight: 0.33333334
      - serializedVersion: 3
        time: 0.7333333
        value: 0.5606346
        inSlope: 1.7315893
        outSlope: 1.7315893
        tangentMode: 0
        weightedMode: 0
        inWeight: 0.33333334
        outWeight: 0.33333334
      - serializedVersion: 3
        time: 0.74999994
        value: 0.58793765
        inSlope: 1.5422537
        outSlope: 1.5422537
        tangentMode: 0
        weightedMode: 0
        inWeight: 0.33333334
        outWeight: 0.33333334
      - serializedVersion: 3
        time: 0.7666666
        value: 0.612043
        inSlope: 1.3501449
        outSlope: 1.3501449
        tangentMode: 0
        weightedMode: 0
        inWeight: 0.33333334
        outWeight: 0.33333334
      - serializedVersion: 3
        time: 0.78333324
        value: 0.63294244
        inSlope: 1.1597705
        outSlope: 1.1597705
        tangentMode: 0
        weightedMode: 0
        inWeight: 0.33333334
        outWeight: 0.33333334
      - serializedVersion: 3
        time: 0.7999999
        value: 0.650702
        inSlope: 0.9754149
        outSlope: 0.9754149
        tangentMode: 0
        weightedMode: 0
        inWeight: 0.33333334
        outWeight: 0.33333334
      - serializedVersion: 3
        time: 0.81666654
        value: 0.66545624
        inSlope: 0.80096376
        outSlope: 0.80096376
        tangentMode: 0
        weightedMode: 0
        inWeight: 0.33333334
        outWeight: 0.33333334
      - serializedVersion: 3
        time: 0.8333332
        value: 0.67740077
        inSlope: 0.63982725
        outSlope: 0.63982725
        tangentMode: 0
        weightedMode: 0
        inWeight: 0.33333334
        outWeight: 0.33333334
      - serializedVersion: 3
        time: 0.84999985
        value: 0.6867838
        inSlope: 0.49481082
        outSlope: 0.49481082
        tangentMode: 0
        weightedMode: 0
        inWeight: 0.33333334
        outWeight: 0.33333334
      - serializedVersion: 3
        time: 0.8666665
        value: 0.69389445
        inSlope: 0.36802804
        outSlope: 0.36802804
        tangentMode: 0
        weightedMode: 0
        inWeight: 0.33333334
        outWeight: 0.33333334
      - serializedVersion: 3
        time: 0.88333315
        value: 0.6990514
        inSlope: 0.26084507
        outSlope: 0.26084507
        tangentMode: 0
        weightedMode: 0
        inWeight: 0.33333334
        outWeight: 0.33333334
      - serializedVersion: 3
        time: 0.8999998
        value: 0.7025893
        inSlope: 0.17382342
        outSlope: 0.17382342
        tangentMode: 0
        weightedMode: 0
        inWeight: 0.33333334
        outWeight: 0.33333334
      - serializedVersion: 3
        time: 0.91666645
        value: 0.7048455
        inSlope: 0.106710896
        outSlope: 0.106710896
        tangentMode: 0
        weightedMode: 0
        inWeight: 0.33333334
        outWeight: 0.33333334
      - serializedVersion: 3
        time: 0.9333331
        value: 0.7061463
        inSlope: 0.058389958
        outSlope: 0.058389958
        tangentMode: 0
        weightedMode: 0
        inWeight: 0.33333334
        outWeight: 0.33333334
      - serializedVersion: 3
        time: 0.94999975
        value: 0.7067918
        inSlope: 0.026882913
        outSlope: 0.026882913
        tangentMode: 0
        weightedMode: 0
        inWeight: 0.33333334
        outWeight: 0.33333334
      - serializedVersion: 3
        time: 0.9666664
        value: 0.7070424
        inSlope: 0.009323367
        outSlope: 0.009323367
        tangentMode: 0
        weightedMode: 0
        inWeight: 0.33333334
        outWeight: 0.33333334
      - serializedVersion: 3
        time: 0.98333305
        value: 0.7071026
        inSlope: 0.0019311901
        outSlope: 0.0019311901
        tangentMode: 0
        weightedMode: 0
        inWeight: 0.33333334
        outWeight: 0.33333334
      - serializedVersion: 3
        time: 1
        value: 0.70710677
        inSlope: 0.00025033526
        outSlope: 0.00025033526
        tangentMode: 0
        weightedMode: 0
        inWeight: 0.33333334
        outWeight: 0.33333334
      m_PreInfinity: 2
      m_PostInfinity: 2
      m_RotationOrder: 4
    attribute: m_LocalRotation.w
    path: 
    classID: 4
    script: {fileID: 0}
  m_EulerEditorCurves:
  - curve:
      serializedVersion: 2
      m_Curve:
      - serializedVersion: 3
        time: 0
        value: 90
        inSlope: 0
        outSlope: 0
        tangentMode: 136
        weightedMode: 0
        inWeight: 0.33333334
        outWeight: 0.33333334
      - serializedVersion: 3
        time: 1
        value: 90
        inSlope: 0
        outSlope: 0
        tangentMode: 136
        weightedMode: 0
        inWeight: 0.33333334
        outWeight: 0.33333334
      m_PreInfinity: 2
      m_PostInfinity: 2
      m_RotationOrder: 4
    attribute: localEulerAnglesBaked.x
    path: 
    classID: 4
    script: {fileID: 0}
  - curve:
      serializedVersion: 2
      m_Curve:
      - serializedVersion: 3
        time: 0
        value: 0
        inSlope: 0
        outSlope: 0
        tangentMode: 136
        weightedMode: 0
        inWeight: 0.33333334
        outWeight: 0.33333334
      - serializedVersion: 3
        time: 1
        value: 0
        inSlope: 0
        outSlope: 0
        tangentMode: 136
        weightedMode: 0
        inWeight: 0.33333334
        outWeight: 0.33333334
      m_PreInfinity: 2
      m_PostInfinity: 2
      m_RotationOrder: 4
    attribute: localEulerAnglesBaked.y
    path: 
    classID: 4
    script: {fileID: 0}
  - curve:
      serializedVersion: 2
      m_Curve:
      - serializedVersion: 3
        time: 0
        value: 0
        inSlope: 0
        outSlope: 0
        tangentMode: 136
        weightedMode: 0
        inWeight: 0.33333334
        outWeight: 0.33333334
      - serializedVersion: 3
        time: 0.5
        value: 180
        inSlope: 360
        outSlope: 360
        tangentMode: 136
        weightedMode: 0
        inWeight: 0.33333334
        outWeight: 0.33333334
      - serializedVersion: 3
        time: 1
        value: 360
        inSlope: 0
        outSlope: 0
        tangentMode: 136
        weightedMode: 0
        inWeight: 0.33333334
        outWeight: 0.33333334
      m_PreInfinity: 2
      m_PostInfinity: 2
      m_RotationOrder: 4
    attribute: localEulerAnglesBaked.z
    path: 
    classID: 4
    script: {fileID: 0}
  m_HasGenericRootTransform: 0
  m_HasMotionFloatCurves: 0
  m_Events: []
