%YAML 1.1
%TAG !u! tag:unity3d.com,2011:
--- !u!1 &5368268118012736457
GameObject:
  m_ObjectHideFlags: 0
  m_CorrespondingSourceObject: {fileID: 0}
  m_PrefabInstance: {fileID: 0}
  m_PrefabAsset: {fileID: 0}
  serializedVersion: 6
  m_Component:
  - component: {fileID: 4913674161912670850}
  m_Layer: 0
  m_Name: EnemyHolder
  m_TagString: Untagged
  m_Icon: {fileID: 0}
  m_NavMeshLayer: 0
  m_StaticEditorFlags: 0
  m_IsActive: 1
--- !u!4 &4913674161912670850
Transform:
  m_ObjectHideFlags: 0
  m_CorrespondingSourceObject: {fileID: 0}
  m_PrefabInstance: {fileID: 0}
  m_PrefabAsset: {fileID: 0}
  m_GameObject: {fileID: 5368268118012736457}
  m_LocalRotation: {x: 0, y: 0, z: 0, w: 1}
  m_LocalPosition: {x: 7.95, y: 1.13, z: -11.63}
  m_LocalScale: {x: 1, y: 1, z: 1}
  m_Children:
  - {fileID: 7272507708825981587}
  m_Father: {fileID: 0}
  m_RootOrder: 0
  m_LocalEulerAnglesHint: {x: 0, y: 0, z: 0}
--- !u!1001 &6024437525514253605
PrefabInstance:
  m_ObjectHideFlags: 0
  serializedVersion: 2
  m_Modification:
    m_TransformParent: {fileID: 4913674161912670850}
    m_Modifications:
    - target: {fileID: 3996444633714632621, guid: eb47dee20bc551349ad3801311e0f6fd,
        type: 3}
      propertyPath: m_Name
      value: Enemy
      objectReference: {fileID: 0}
    - target: {fileID: 3996444633714632630, guid: eb47dee20bc551349ad3801311e0f6fd,
        type: 3}
      propertyPath: m_LocalPosition.x
      value: 0
      objectReference: {fileID: 0}
    - target: {fileID: 3996444633714632630, guid: eb47dee20bc551349ad3801311e0f6fd,
        type: 3}
      propertyPath: m_LocalPosition.y
      value: 0
      objectReference: {fileID: 0}
    - target: {fileID: 3996444633714632630, guid: eb47dee20bc551349ad3801311e0f6fd,
        type: 3}
      propertyPath: m_LocalPosition.z
      value: 0
      objectReference: {fileID: 0}
    - target: {fileID: 3996444633714632630, guid: eb47dee20bc551349ad3801311e0f6fd,
        type: 3}
      propertyPath: m_LocalRotation.x
      value: -0
      objectReference: {fileID: 0}
    - target: {fileID: 3996444633714632630, guid: eb47dee20bc551349ad3801311e0f6fd,
        type: 3}
      propertyPath: m_LocalRotation.y
      value: -0
      objectReference: {fileID: 0}
    - target: {fileID: 3996444633714632630, guid: eb47dee20bc551349ad3801311e0f6fd,
        type: 3}
      propertyPath: m_LocalRotation.z
      value: -0
      objectReference: {fileID: 0}
    - target: {fileID: 3996444633714632630, guid: eb47dee20bc551349ad3801311e0f6fd,
        type: 3}
      propertyPath: m_LocalRotation.w
      value: 1
      objectReference: {fileID: 0}
    - target: {fileID: 3996444633714632630, guid: eb47dee20bc551349ad3801311e0f6fd,
        type: 3}
      propertyPath: m_RootOrder
      value: 0
      objectReference: {fileID: 0}
    - target: {fileID: 3996444633714632630, guid: eb47dee20bc551349ad3801311e0f6fd,
        type: 3}
      propertyPath: m_LocalEulerAnglesHint.x
      value: 0
      objectReference: {fileID: 0}
    - target: {fileID: 3996444633714632630, guid: eb47dee20bc551349ad3801311e0f6fd,
        type: 3}
      propertyPath: m_LocalEulerAnglesHint.y
      value: 0
      objectReference: {fileID: 0}
    - target: {fileID: 3996444633714632630, guid: eb47dee20bc551349ad3801311e0f6fd,
        type: 3}
      propertyPath: m_LocalEulerAnglesHint.z
      value: 0
      objectReference: {fileID: 0}
    m_RemovedComponents: []
  m_SourcePrefab: {fileID: 100100000, guid: eb47dee20bc551349ad3801311e0f6fd, type: 3}
--- !u!4 &7272507708825981587 stripped
Transform:
  m_CorrespondingSourceObject: {fileID: 3996444633714632630, guid: eb47dee20bc551349ad3801311e0f6fd,
    type: 3}
  m_PrefabInstance: {fileID: 6024437525514253605}
  m_PrefabAsset: {fileID: 0}
